# Blender v2.77 (sub 0) OBJ File for Thorium: 'dummy_hierarchy.blend'
# www.blender.org
mtllib dummy_hierarchy.mtl
o Icosphere
v 2.878721 0.000000 -1.000000
v 3.602329 -0.525725 -0.447220
v 2.602334 -0.850649 -0.447220
v 1.984295 0.000000 -0.447216
v 2.602334 0.850649 -0.447220
v 3.602329 0.525725 -0.447220
v 3.155109 -0.850649 0.447220
v 2.155114 -0.525725 0.447220
v 2.155114 0.525725 0.447220
v 3.155109 0.850649 0.447220
v 3.773148 0.000000 0.447216
v 2.878721 0.000000 1.000000
v 2.645900 -0.716563 -0.657519
v 2.716266 -0.499995 -0.850654
v 2.801115 -0.238853 -0.967950
v 3.081903 -0.147618 -0.967950
v 3.304044 -0.309011 -0.850654
v 3.488268 -0.442856 -0.657519
v 3.410662 -0.681712 -0.502302
v 3.141590 -0.809012 -0.525738
v 2.849082 -0.864184 -0.502302
v 3.691451 0.295238 -0.502301
v 3.729369 0.000000 -0.525736
v 3.691451 -0.295238 -0.502301
v 3.081903 0.147618 -0.967950
v 3.304044 0.309011 -0.850654
v 3.488268 0.442856 -0.657519
v 2.125280 0.000000 -0.657515
v 2.352992 0.000000 -0.850652
v 2.627574 0.000000 -0.967949
v 2.394750 -0.716565 -0.502302
v 2.190532 -0.499997 -0.525736
v 2.047671 -0.238853 -0.502299
v 2.645900 0.716563 -0.657519
v 2.716266 0.499995 -0.850654
v 2.801115 0.238853 -0.967950
v 2.047671 0.238853 -0.502299
v 2.190532 0.499997 -0.525736
v 2.394750 0.716565 -0.502302
v 2.849082 0.864184 -0.502302
v 3.141590 0.809012 -0.525738
v 3.410662 0.681712 -0.502302
v 3.835347 -0.147618 0.251149
v 3.829779 -0.309013 -0.000000
v 3.739419 -0.442858 -0.251151
v 3.739419 0.442858 -0.251151
v 3.829779 0.309013 0.000000
v 3.835347 0.147618 0.251149
v 3.033937 -0.955422 0.251152
v 2.878721 -1.000000 -0.000000
v 2.723506 -0.955422 -0.251152
v 3.565880 -0.681715 -0.251152
v 3.466507 -0.809017 0.000000
v 3.314728 -0.864188 0.251152
v 2.018024 -0.442858 0.251151
v 1.927664 -0.309013 -0.000000
v 1.922096 -0.147618 -0.251149
v 2.442715 -0.864188 -0.251152
v 2.290936 -0.809017 0.000000
v 2.191563 -0.681715 0.251152
v 2.191563 0.681715 0.251152
v 2.290936 0.809017 -0.000000
v 2.442715 0.864188 -0.251152
v 1.922096 0.147618 -0.251149
v 1.927664 0.309013 0.000000
v 2.018024 0.442858 0.251151
v 3.314728 0.864188 0.251152
v 3.466507 0.809017 -0.000000
v 3.565880 0.681715 -0.251152
v 2.723506 0.955422 -0.251152
v 2.878721 1.000000 0.000000
v 3.033937 0.955422 0.251152
v 3.709772 -0.238853 0.502299
v 3.566911 -0.499997 0.525736
v 3.362693 -0.716565 0.502302
v 2.908361 -0.864184 0.502302
v 2.615853 -0.809012 0.525738
v 2.346781 -0.681712 0.502302
v 2.065992 -0.295238 0.502301
v 2.028074 0.000000 0.525736
v 2.065992 0.295238 0.502301
v 2.346781 0.681712 0.502302
v 2.615853 0.809012 0.525738
v 2.908361 0.864184 0.502302
v 3.362693 0.716565 0.502302
v 3.566911 0.499997 0.525736
v 3.709772 0.238853 0.502299
v 2.956328 -0.238853 0.967950
v 3.041177 -0.499995 0.850654
v 3.111543 -0.716563 0.657519
v 3.632163 0.000000 0.657515
v 3.404451 0.000000 0.850652
v 3.129869 0.000000 0.967949
v 2.675540 -0.147618 0.967950
v 2.453399 -0.309011 0.850654
v 2.269175 -0.442856 0.657519
v 2.675540 0.147618 0.967950
v 2.453399 0.309011 0.850654
v 2.269175 0.442856 0.657519
v 2.956328 0.238853 0.967950
v 3.041177 0.499995 0.850654
v 3.111543 0.716563 0.657519
v 3.240522 0.262863 0.894429
v 3.516915 0.262864 0.723610
v 3.325931 0.525728 0.723612
v 2.740524 0.425319 0.894430
v 2.825932 0.688185 0.723612
v 2.516918 0.587778 0.723612
v 2.431512 0.000000 0.894429
v 2.207905 0.162457 0.723611
v 2.207905 -0.162457 0.723611
v 2.740524 -0.425319 0.894430
v 2.516918 -0.587778 0.723612
v 2.825932 -0.688185 0.723612
v 3.240522 -0.262863 0.894429
v 3.325931 -0.525728 0.723612
v 3.516915 -0.262864 0.723610
v 3.740526 0.425322 0.276396
v 3.687741 0.587782 0.000000
v 3.549542 0.688189 0.276397
v 2.740523 0.951055 0.276397
v 2.569705 0.951057 -0.000000
v 2.431506 0.850649 0.276397
v 1.931508 0.162458 0.276396
v 1.878721 -0.000000 0.000001
v 1.931509 -0.162458 0.276397
v 2.431506 -0.850648 0.276397
v 2.569704 -0.951056 -0.000001
v 2.740522 -0.951055 0.276397
v 3.549542 -0.688190 0.276396
v 3.687740 -0.587783 -0.000002
v 3.740526 -0.425323 0.276394
v 3.187739 0.951056 -0.000000
v 3.325937 0.850648 -0.276398
v 3.016921 0.951055 -0.276398
v 2.069703 0.587783 -0.000000
v 2.207902 0.688191 -0.276397
v 2.016918 0.425324 -0.276396
v 2.069703 -0.587783 0.000000
v 2.016918 -0.425324 -0.276396
v 2.207902 -0.688191 -0.276397
v 3.187739 -0.951056 0.000000
v 3.016921 -0.951055 -0.276398
v 3.325937 -0.850648 -0.276398
v 3.878721 0.000000 0.000000
v 3.825935 -0.162458 -0.276396
v 3.825935 0.162458 -0.276396
v 3.240525 0.587779 -0.723612
v 3.016918 0.425321 -0.894429
v 2.931511 0.688186 -0.723611
v 2.431511 0.525727 -0.723612
v 2.516920 0.262863 -0.894429
v 2.240527 0.262863 -0.723609
v 2.240527 -0.262864 -0.723609
v 2.516920 -0.262864 -0.894428
v 2.431511 -0.525729 -0.723610
v 3.549539 0.162457 -0.723611
v 3.549539 -0.162458 -0.723610
v 3.325933 -0.000001 -0.894428
v 2.931512 -0.688185 -0.723612
v 3.016920 -0.425321 -0.894429
v 3.240526 -0.587779 -0.723611
usemtl Lead_(Pb)_oxyde
s off
f 1 16 15
f 2 18 24
f 1 15 30
f 1 30 36
f 1 36 25
f 2 24 45
f 3 21 51
f 4 33 57
f 5 39 63
f 6 42 69
f 2 45 52
f 3 51 58
f 4 57 64
f 5 63 70
f 6 69 46
f 7 75 90
f 8 78 96
f 9 81 99
f 10 84 102
f 11 87 91
f 93 100 12
f 92 103 93
f 91 104 92
f 93 103 100
f 103 101 100
f 92 104 103
f 104 105 103
f 103 105 101
f 105 102 101
f 91 87 104
f 87 86 104
f 104 86 105
f 86 85 105
f 105 85 102
f 85 10 102
f 100 97 12
f 101 106 100
f 102 107 101
f 100 106 97
f 106 98 97
f 101 107 106
f 107 108 106
f 106 108 98
f 108 99 98
f 102 84 107
f 84 83 107
f 107 83 108
f 83 82 108
f 108 82 99
f 82 9 99
f 97 94 12
f 98 109 97
f 99 110 98
f 97 109 94
f 109 95 94
f 98 110 109
f 110 111 109
f 109 111 95
f 111 96 95
f 99 81 110
f 81 80 110
f 110 80 111
f 80 79 111
f 111 79 96
f 79 8 96
f 94 88 12
f 95 112 94
f 96 113 95
f 94 112 88
f 112 89 88
f 95 113 112
f 113 114 112
f 112 114 89
f 114 90 89
f 96 78 113
f 78 77 113
f 113 77 114
f 77 76 114
f 114 76 90
f 76 7 90
f 88 93 12
f 89 115 88
f 90 116 89
f 88 115 93
f 115 92 93
f 89 116 115
f 116 117 115
f 115 117 92
f 117 91 92
f 90 75 116
f 75 74 116
f 116 74 117
f 74 73 117
f 117 73 91
f 73 11 91
f 48 87 11
f 47 118 48
f 46 119 47
f 48 118 87
f 118 86 87
f 47 119 118
f 119 120 118
f 118 120 86
f 120 85 86
f 46 69 119
f 69 68 119
f 119 68 120
f 68 67 120
f 120 67 85
f 67 10 85
f 72 84 10
f 71 121 72
f 70 122 71
f 72 121 84
f 121 83 84
f 71 122 121
f 122 123 121
f 121 123 83
f 123 82 83
f 70 63 122
f 63 62 122
f 122 62 123
f 62 61 123
f 123 61 82
f 61 9 82
f 66 81 9
f 65 124 66
f 64 125 65
f 66 124 81
f 124 80 81
f 65 125 124
f 125 126 124
f 124 126 80
f 126 79 80
f 64 57 125
f 57 56 125
f 125 56 126
f 56 55 126
f 126 55 79
f 55 8 79
f 60 78 8
f 59 127 60
f 58 128 59
f 60 127 78
f 127 77 78
f 59 128 127
f 128 129 127
f 127 129 77
f 129 76 77
f 58 51 128
f 51 50 128
f 128 50 129
f 50 49 129
f 129 49 76
f 49 7 76
f 54 75 7
f 53 130 54
f 52 131 53
f 54 130 75
f 130 74 75
f 53 131 130
f 131 132 130
f 130 132 74
f 132 73 74
f 52 45 131
f 45 44 131
f 131 44 132
f 44 43 132
f 132 43 73
f 43 11 73
f 67 72 10
f 68 133 67
f 69 134 68
f 67 133 72
f 133 71 72
f 68 134 133
f 134 135 133
f 133 135 71
f 135 70 71
f 69 42 134
f 42 41 134
f 134 41 135
f 41 40 135
f 135 40 70
f 40 5 70
f 61 66 9
f 62 136 61
f 63 137 62
f 61 136 66
f 136 65 66
f 62 137 136
f 137 138 136
f 136 138 65
f 138 64 65
f 63 39 137
f 39 38 137
f 137 38 138
f 38 37 138
f 138 37 64
f 37 4 64
f 55 60 8
f 56 139 55
f 57 140 56
f 55 139 60
f 139 59 60
f 56 140 139
f 140 141 139
f 139 141 59
f 141 58 59
f 57 33 140
f 33 32 140
f 140 32 141
f 32 31 141
f 141 31 58
f 31 3 58
f 49 54 7
f 50 142 49
f 51 143 50
f 49 142 54
f 142 53 54
f 50 143 142
f 143 144 142
f 142 144 53
f 144 52 53
f 51 21 143
f 21 20 143
f 143 20 144
f 20 19 144
f 144 19 52
f 19 2 52
f 43 48 11
f 44 145 43
f 45 146 44
f 43 145 48
f 145 47 48
f 44 146 145
f 146 147 145
f 145 147 47
f 147 46 47
f 45 24 146
f 24 23 146
f 146 23 147
f 23 22 147
f 147 22 46
f 22 6 46
f 27 42 6
f 26 148 27
f 25 149 26
f 27 148 42
f 148 41 42
f 26 149 148
f 149 150 148
f 148 150 41
f 150 40 41
f 25 36 149
f 36 35 149
f 149 35 150
f 35 34 150
f 150 34 40
f 34 5 40
f 34 39 5
f 35 151 34
f 36 152 35
f 34 151 39
f 151 38 39
f 35 152 151
f 152 153 151
f 151 153 38
f 153 37 38
f 36 30 152
f 30 29 152
f 152 29 153
f 29 28 153
f 153 28 37
f 28 4 37
f 28 33 4
f 29 154 28
f 30 155 29
f 28 154 33
f 154 32 33
f 29 155 154
f 155 156 154
f 154 156 32
f 156 31 32
f 30 15 155
f 15 14 155
f 155 14 156
f 14 13 156
f 156 13 31
f 13 3 31
f 22 27 6
f 23 157 22
f 24 158 23
f 22 157 27
f 157 26 27
f 23 158 157
f 158 159 157
f 157 159 26
f 159 25 26
f 24 18 158
f 18 17 158
f 158 17 159
f 17 16 159
f 159 16 25
f 16 1 25
f 13 21 3
f 14 160 13
f 15 161 14
f 13 160 21
f 160 20 21
f 14 161 160
f 161 162 160
f 160 162 20
f 162 19 20
f 15 16 161
f 16 17 161
f 161 17 162
f 17 18 162
f 162 18 19
f 18 2 19
