# Blender v2.77 (sub 0) OBJ File for Thorium: 'isolator.blend'
# www.blender.org
mtllib isolator.mtl
o Text.002_Text.001
v 0.450000 0.594000 12.000000
v 0.016000 0.000000 12.000000
v 0.631000 0.000000 12.000000
v 0.631000 0.088000 12.000000
v 0.197000 0.088000 12.000000
v 0.631000 0.682000 12.000000
v 0.043000 0.682000 12.000000
v 0.043000 0.594000 12.000000
vn 0.0000 0.0000 1.0000
usemtl None
s off
f 8//1 6//1 7//1
f 8//1 1//1 6//1
f 1//1 5//1 6//1
f 2//1 5//1 1//1
f 2//1 4//1 5//1
f 2//1 3//1 4//1
o Text.001_Text
v 0.301000 12.447001 0.000000
v 0.118000 12.682000 0.000000
v 0.000000 12.682000 0.000000
v 0.253000 12.361000 0.000000
v 0.253000 12.000000 0.000000
v 0.351000 12.000000 0.000000
v 0.351000 12.360000 0.000000
v 0.604000 12.682000 0.000000
v 0.486000 12.682000 0.000000
vn 0.0000 0.0000 1.0000
usemtl None
s off
f 12//2 10//2 11//2
f 12//2 9//2 10//2
f 9//2 16//2 17//2
f 9//2 15//2 16//2
f 12//2 15//2 9//2
f 13//2 15//2 12//2
f 13//2 14//2 15//2
o Text_X
v 12.706000 0.000000 0.100000
v 12.588000 0.000000 0.100000
v 12.356000 0.282000 0.100000
v 12.121000 0.000000 0.100000
v 12.002000 0.000000 0.100000
v 12.296000 0.353000 0.100000
v 12.023000 0.682000 0.100000
v 12.142000 0.682000 0.100000
v 12.356000 0.422000 0.100000
v 12.569000 0.682000 0.100000
v 12.687000 0.682000 0.100000
v 12.415000 0.353000 0.100000
v 12.706000 0.000000 -0.100000
v 12.588000 0.000000 -0.100000
v 12.356000 0.282000 -0.100000
v 12.121000 0.000000 -0.100000
v 12.002000 0.000000 -0.100000
v 12.296000 0.353000 -0.100000
v 12.023000 0.682000 -0.100000
v 12.142000 0.682000 -0.100000
v 12.356000 0.422000 -0.100000
v 12.569000 0.682000 -0.100000
v 12.687000 0.682000 -0.100000
v 12.415000 0.353000 -0.100000
v 12.706000 0.000000 -0.100000
v 12.706000 0.000000 0.100000
v 12.588000 0.000000 -0.100000
v 12.588000 0.000000 0.100000
v 12.356000 0.282000 -0.100000
v 12.356000 0.282000 0.100000
v 12.121000 0.000000 -0.100000
v 12.121000 0.000000 0.100000
v 12.002000 0.000000 -0.100000
v 12.002000 0.000000 0.100000
v 12.296000 0.353000 -0.100000
v 12.296000 0.353000 0.100000
v 12.023000 0.682000 -0.100000
v 12.023000 0.682000 0.100000
v 12.142000 0.682000 -0.100000
v 12.142000 0.682000 0.100000
v 12.356000 0.422000 -0.100000
v 12.356000 0.422000 0.100000
v 12.569000 0.682000 -0.100000
v 12.569000 0.682000 0.100000
v 12.687000 0.682000 -0.100000
v 12.687000 0.682000 0.100000
v 12.415000 0.353000 -0.100000
v 12.415000 0.353000 0.100000
vn 0.0000 0.0000 1.0000
vn 0.0000 0.0000 -1.0000
vn -0.4270 -0.9042 0.0000
vn 0.9044 -0.4266 0.0000
vn -0.0031 -1.0000 0.0000
vn 0.4241 -0.9056 0.0000
vn -0.9055 -0.4243 0.0000
vn -1.0000 0.0009 0.0000
vn -0.9051 0.4251 0.0000
vn 0.4269 0.9043 0.0000
vn -0.0011 1.0000 0.0000
vn -0.4279 0.9038 0.0000
vn 0.9048 0.4259 0.0000
vn 1.0000 -0.0007 0.0000
usemtl isolator
s off
f 23//3 25//3 24//3
f 23//3 26//3 25//3
f 26//3 28//3 27//3
f 26//3 29//3 28//3
f 23//3 29//3 26//3
f 22//3 29//3 23//3
f 22//3 20//3 29//3
f 20//3 18//3 29//3
f 22//3 21//3 20//3
f 19//3 18//3 20//3
f 37//4 35//4 36//4
f 38//4 35//4 37//4
f 40//4 38//4 39//4
f 41//4 38//4 40//4
f 41//4 35//4 38//4
f 41//4 34//4 35//4
f 32//4 34//4 41//4
f 30//4 32//4 41//4
f 33//4 34//4 32//4
f 30//4 31//4 32//4
s 1
f 45//5 42//6 43//6
f 47//7 44//5 45//5
f 49//8 46//7 47//7
f 51//9 48//8 49//8
f 53//10 50//9 51//9
f 55//11 52//10 53//10
f 57//12 54//11 55//11
f 59//13 56//12 57//12
f 61//14 58//13 59//13
f 63//15 60//14 61//14
f 65//16 62//15 63//15
f 43//6 64//16 65//16
f 45//5 44//5 42//6
f 47//7 46//7 44//5
f 49//8 48//8 46//7
f 51//9 50//9 48//8
f 53//10 52//10 50//9
f 55//11 54//11 52//10
f 57//12 56//12 54//11
f 59//13 58//13 56//12
f 61//14 60//14 58//13
f 63//15 62//15 60//14
f 65//16 64//16 62//15
f 43//6 42//6 64//16
o Cube_Cube.001
v 2.000000 -1.000000 2.000000
v 2.000000 -1.000000 4.000000
v 2.000000 1.000000 2.000000
v 2.000000 1.000000 4.000000
v 4.000000 -1.000000 2.000000
v 4.000000 -1.000000 4.000000
v 4.000000 1.000000 2.000000
v 4.000000 1.000000 4.000000
vn -1.0000 0.0000 0.0000
vn 0.0000 1.0000 0.0000
vn 1.0000 0.0000 0.0000
vn 0.0000 -1.0000 0.0000
vn 0.0000 0.0000 -1.0000
vn 0.0000 0.0000 1.0000
usemtl consumer
s off
f 69//17 66//17 67//17
f 73//18 68//18 69//18
f 71//19 72//19 73//19
f 67//20 70//20 71//20
f 68//21 70//21 66//21
f 73//22 67//22 71//22
f 69//17 68//17 66//17
f 73//18 72//18 68//18
f 71//19 70//19 72//19
f 67//20 66//20 70//20
f 68//21 72//21 70//21
f 73//22 69//22 67//22
o Icosphere
v 0.000000 0.000000 -10.000000
v 7.236073 -5.257253 -4.472196
v -2.763880 -8.506492 -4.472198
v -8.944263 0.000000 -4.472157
v -2.763880 8.506492 -4.472198
v 7.236073 5.257253 -4.472196
v 2.763880 -8.506492 4.472198
v -7.236073 -5.257253 4.472196
v -7.236073 5.257253 4.472196
v 2.763880 8.506492 4.472198
v 8.944263 0.000000 4.472157
v 0.000000 0.000000 10.000000
v -2.579365 -7.938604 -5.506854
v -2.328215 -7.165630 -6.575192
v -2.006885 -6.176661 -7.604031
v -1.624555 -4.999952 -8.506545
v -1.204126 -3.705983 -9.209548
v -0.776066 -2.388527 -9.679497
v -0.368477 -1.134076 -9.928651
v 0.964706 -0.700891 -9.928650
v 2.031809 -1.476178 -9.679496
v 3.152508 -2.290404 -9.209546
v 4.253227 -3.090114 -8.506542
v 5.254197 -3.817353 -7.604027
v 6.095467 -4.428564 -6.575189
v 6.752999 -4.906283 -5.506850
v 6.384525 -6.040375 -4.769874
v 5.319409 -6.817123 -5.023017
v 4.050084 -7.523381 -5.195724
v 2.628688 -8.090116 -5.257377
v 1.145639 -8.467111 -5.195726
v -0.296393 -8.641842 -5.023019
v -1.614652 -8.639512 -4.769877
v 7.717713 4.205385 -4.769869
v 8.127293 2.952377 -5.023007
v 8.406727 1.526943 -5.195709
v 8.506478 -0.000000 -5.257359
v 8.406726 -1.526943 -5.195708
v 8.127292 -2.952377 -5.023005
v 7.717712 -4.205385 -4.769868
v 0.964706 0.700891 -9.928650
v 2.031809 1.476178 -9.679496
v 3.152508 2.290404 -9.209546
v 4.253227 3.090114 -8.506542
v 5.254197 3.817353 -7.604027
v 6.095467 4.428564 -6.575189
v 6.752999 4.906283 -5.506850
v -8.347159 0.000000 -5.506807
v -7.534416 0.000000 -6.575148
v -6.494559 0.000000 -7.603992
v -5.257297 0.000000 -8.506516
v -3.896734 0.000000 -9.209531
v -2.511470 0.000000 -9.679490
v -1.192450 0.000000 -9.928649
v -3.771830 -7.938613 -4.769877
v -4.839714 -7.165646 -5.023017
v -5.903657 -6.176678 -5.195718
v -6.881893 -4.999969 -5.257362
v -7.698721 -3.705995 -5.195701
v -8.310507 -2.388534 -5.022986
v -8.715648 -1.134078 -4.769838
v -2.579365 7.938604 -5.506854
v -2.328215 7.165630 -6.575192
v -2.006885 6.176661 -7.604031
v -1.624555 4.999952 -8.506545
v -1.204126 3.705983 -9.209548
v -0.776066 2.388527 -9.679497
v -0.368477 1.134076 -9.928651
v -8.715648 1.134078 -4.769838
v -8.310507 2.388534 -5.022986
v -7.698721 3.705995 -5.195701
v -6.881893 4.999969 -5.257362
v -5.903657 6.176679 -5.195718
v -4.839714 7.165646 -5.023017
v -3.771830 7.938613 -4.769877
v -1.614652 8.639512 -4.769877
v -0.296392 8.641842 -5.023019
v 1.145640 8.467111 -5.195725
v 2.628689 8.090117 -5.257377
v 4.050085 7.523381 -5.195724
v 5.319409 6.817124 -5.023017
v 6.384525 6.040375 -4.769874
v 9.311880 -0.700893 3.577380
v 9.566257 -1.476184 2.511494
v 9.647114 -2.290413 1.298926
v 9.510578 -3.090127 -0.000000
v 9.150984 -3.817367 -1.298930
v 8.606977 -4.428576 -2.511509
v 7.945469 -4.906289 -3.577406
v 7.945470 4.906289 -3.577406
v 8.606977 4.428575 -2.511508
v 9.150983 3.817366 -1.298930
v 9.510578 3.090126 0.000000
v 9.647114 2.290413 1.298926
v 9.566257 1.476183 2.511495
v 9.311880 0.700893 3.577380
v 2.210889 -9.072712 3.577412
v 1.552151 -9.554220 2.511515
v 0.802760 -9.882730 1.298935
v -0.000000 -10.000000 -0.000000
v -0.802760 -9.882730 -1.298935
v -1.552151 -9.554220 -2.511516
v -2.210889 -9.072712 -3.577412
v 7.121504 -6.040389 -3.577414
v 6.871586 -6.817153 -2.511519
v 6.458393 -7.523424 -1.298938
v 5.877856 -8.090167 0.000000
v 5.159456 -8.467158 1.298939
v 4.360068 -8.641878 2.511521
v 3.544092 -8.639532 3.577416
v -7.945470 -4.906289 3.577406
v -8.606977 -4.428575 2.511508
v -9.150983 -3.817366 1.298930
v -9.510578 -3.090126 -0.000000
v -9.647114 -2.290413 -1.298926
v -9.566257 -1.476183 -2.511495
v -9.311880 -0.700893 -3.577380
v -3.544092 -8.639532 -3.577416
v -4.360068 -8.641879 -2.511520
v -5.159455 -8.467158 -1.298938
v -5.877856 -8.090167 0.000000
v -6.458393 -7.523424 1.298939
v -6.871585 -6.817153 2.511520
v -7.121503 -6.040390 3.577414
v -7.121504 6.040389 3.577414
v -6.871586 6.817153 2.511519
v -6.458393 7.523424 1.298938
v -5.877856 8.090167 -0.000000
v -5.159456 8.467158 -1.298939
v -4.360068 8.641878 -2.511521
v -3.544092 8.639532 -3.577416
v -9.311880 0.700893 -3.577380
v -9.566257 1.476184 -2.511494
v -9.647114 2.290413 -1.298926
v -9.510578 3.090127 0.000000
v -9.150984 3.817367 1.298930
v -8.606977 4.428576 2.511509
v -7.945469 4.906289 3.577406
v 3.544092 8.639532 3.577416
v 4.360068 8.641879 2.511520
v 5.159455 8.467158 1.298938
v 5.877856 8.090167 -0.000000
v 6.458393 7.523424 -1.298939
v 6.871585 6.817153 -2.511520
v 7.121503 6.040390 -3.577414
v -2.210889 9.072712 -3.577412
v -1.552151 9.554220 -2.511515
v -0.802760 9.882730 -1.298935
v 0.802760 9.882730 1.298935
v 1.552151 9.554220 2.511516
v 2.210889 9.072712 3.577412
v 8.715648 -1.134078 4.769838
v 8.310507 -2.388534 5.022986
v 7.698721 -3.705995 5.195701
v 6.881893 -4.999969 5.257362
v 5.903657 -6.176679 5.195718
v 4.839714 -7.165646 5.023017
v 3.771830 -7.938613 4.769877
v 1.614652 -8.639512 4.769877
v 0.296392 -8.641842 5.023019
v -1.145640 -8.467111 5.195725
v -2.628689 -8.090117 5.257377
v -4.050085 -7.523381 5.195724
v -5.319409 -6.817124 5.023017
v -6.384525 -6.040375 4.769874
v -7.717713 -4.205385 4.769869
v -8.127293 -2.952377 5.023007
v -8.406727 -1.526943 5.195709
v -8.506478 0.000000 5.257359
v -8.406726 1.526943 5.195708
v -8.127292 2.952377 5.023005
v -7.717712 4.205385 4.769868
v -6.384525 6.040375 4.769874
v -5.319409 6.817123 5.023017
v -4.050084 7.523381 5.195724
v -2.628688 8.090116 5.257377
v -1.145639 8.467111 5.195726
v 0.296393 8.641842 5.023019
v 1.614652 8.639512 4.769877
v 3.771830 7.938613 4.769877
v 4.839714 7.165646 5.023017
v 5.903657 6.176678 5.195718
v 6.881893 4.999969 5.257362
v 7.698721 3.705995 5.195701
v 8.310507 2.388534 5.022986
v 8.715648 1.134078 4.769838
v 0.368477 -1.134076 9.928651
v 0.776066 -2.388527 9.679498
v 1.204126 -3.705983 9.209548
v 1.624556 -4.999952 8.506544
v 2.006885 -6.176661 7.604030
v 2.328215 -7.165631 6.575191
v 2.579365 -7.938604 5.506854
v 8.347159 0.000000 5.506807
v 7.534416 0.000000 6.575148
v 6.494559 0.000000 7.603992
v 5.257297 0.000000 8.506516
v 3.896734 0.000000 9.209531
v 2.511470 0.000000 9.679490
v 1.192450 0.000000 9.928649
v -0.964706 -0.700891 9.928650
v -2.031809 -1.476178 9.679496
v -3.152508 -2.290404 9.209546
v -4.253227 -3.090114 8.506542
v -5.254197 -3.817353 7.604027
v -6.095467 -4.428564 6.575189
v -6.752999 -4.906283 5.506850
v -0.964706 0.700891 9.928650
v -2.031809 1.476178 9.679496
v -3.152508 2.290404 9.209546
v -4.253227 3.090114 8.506542
v -5.254197 3.817353 7.604027
v -6.095467 4.428564 6.575189
v -6.752999 4.906283 5.506850
v 0.368477 1.134076 9.928651
v 0.776066 2.388527 9.679498
v 1.204126 3.705983 9.209548
v 1.624556 4.999952 8.506544
v 2.006885 6.176661 7.604030
v 2.328215 7.165631 6.575191
v 2.579365 7.938604 5.506854
v 1.661977 1.207493 9.786716
v 3.071672 1.265179 9.432081
v 2.152448 2.530358 9.432087
v 4.513747 1.297306 8.828538
v 3.618003 2.628630 8.944292
v 2.628618 3.891920 8.828552
v 5.877829 1.297309 7.985495
v 5.067286 2.664026 8.199121
v 4.099507 3.996039 8.199129
v 3.050135 5.189237 7.985518
v 7.062578 1.265186 6.965580
v 6.381936 2.628641 7.236101
v 5.500081 3.996049 7.333533
v 4.472092 5.257283 7.236116
v 3.385685 6.325932 6.965611
v 8.010216 1.207503 5.863307
v 7.473660 2.530377 6.143419
v 6.720868 3.891944 6.299422
v 5.778304 5.189259 6.299429
v 4.715991 6.325944 6.143441
v 3.623656 7.245020 5.863342
v -0.634826 1.953757 9.786716
v -0.254080 3.312273 9.432089
v -1.741382 2.829011 9.432088
v 0.160981 4.693689 8.828555
v -1.381973 4.253195 8.944300
v -2.889160 3.702622 8.828553
v 0.582496 5.991006 7.985520
v -0.967792 5.642478 8.199136
v -2.533662 5.133687 8.199135
v -3.992725 4.504402 7.985518
v 0.979149 7.107848 6.965613
v -0.527896 6.881849 7.236123
v -2.100876 6.465712 7.333546
v -3.618037 5.877785 7.236121
v -4.970093 5.174788 6.965611
v 1.326842 7.991287 5.863346
v -0.097085 7.889779 6.143447
v -1.624629 7.594579 6.299440
v -3.149707 7.099042 6.299439
v -4.559023 6.439982 6.143446
v -5.770661 5.685129 5.863343
v -2.054315 0.000000 9.786715
v -3.228684 0.781916 9.432084
v -3.228684 -0.781916 9.432084
v -4.414228 1.603543 8.828547
v -4.472099 0.000000 8.944290
v -4.414228 -1.603543 8.828547
v -5.517794 2.405319 7.985512
v -5.665394 0.823220 8.199123
v -5.665394 -0.823220 8.199123
v -5.517793 -2.405319 7.985511
v -6.457397 3.127679 6.965604
v -6.708167 1.624570 7.236109
v -6.798480 -0.000000 7.333530
v -6.708167 -1.624570 7.236109
v -6.457397 -3.127679 6.965604
v -7.190154 3.731351 5.863336
v -7.533634 2.345760 6.143433
v -7.724924 0.801774 6.299422
v -7.724924 -0.801774 6.299422
v -7.533634 -2.345761 6.143433
v -7.190154 -3.731351 5.863336
v -0.634826 -1.953757 9.786716
v -1.741382 -2.829011 9.432088
v -0.254080 -3.312273 9.432089
v -2.889160 -3.702622 8.828553
v -1.381973 -4.253195 8.944300
v 0.160981 -4.693689 8.828555
v -3.992724 -4.504402 7.985518
v -2.533662 -5.133687 8.199135
v -0.967792 -5.642478 8.199136
v 0.582496 -5.991006 7.985520
v -4.970093 -5.174788 6.965611
v -3.618037 -5.877784 7.236122
v -2.100876 -6.465711 7.333546
v -0.527896 -6.881848 7.236123
v 0.979149 -7.107848 6.965614
v -5.770661 -5.685129 5.863343
v -4.559023 -6.439983 6.143445
v -3.149707 -7.099043 6.299439
v -1.624628 -7.594580 6.299439
v -0.097085 -7.889780 6.143446
v 1.326842 -7.991288 5.863346
v 1.661977 -1.207493 9.786716
v 2.152448 -2.530358 9.432087
v 3.071672 -1.265179 9.432081
v 2.628618 -3.891920 8.828553
v 3.618003 -2.628629 8.944292
v 4.513747 -1.297306 8.828538
v 3.050135 -5.189237 7.985518
v 4.099507 -3.996039 8.199128
v 5.067286 -2.664026 8.199121
v 5.877828 -1.297309 7.985495
v 3.385685 -6.325932 6.965611
v 4.472091 -5.257282 7.236116
v 5.500081 -3.996048 7.333533
v 6.381936 -2.628641 7.236102
v 7.062578 -1.265186 6.965580
v 3.623657 -7.245020 5.863342
v 4.715991 -6.325943 6.143441
v 5.778304 -5.189259 6.299428
v 6.720868 -3.891944 6.299421
v 7.473660 -2.530377 6.143418
v 8.010216 -1.207503 5.863307
v 9.037397 1.953764 3.808972
v 9.215079 2.829024 2.660629
v 8.549920 3.312288 3.990942
v 9.188562 3.702642 1.364097
v 8.618042 4.253219 2.763962
v 7.824464 4.693712 4.092289
v 8.928053 4.504426 0.000000
v 8.466598 5.133720 1.400591
v 7.766302 5.642513 2.801182
v 6.881904 5.991035 4.092297
v 8.452903 5.174813 -1.330321
v 8.090193 5.877821 0.000000
v 7.498823 6.465755 1.400595
v 6.708206 6.881891 2.763974
v 5.792260 7.107879 3.990965
v 7.825015 5.685149 -2.539335
v 7.533684 6.440019 -1.330324
v 7.042933 7.099090 0.000001
v 6.360881 7.594629 1.364107
v 5.538197 7.889823 2.660650
v 4.650846 7.991315 3.809004
v 0.934511 9.198816 3.809000
v 0.156998 9.638273 2.660644
v -0.508163 9.154997 3.990963
v -0.682050 9.883018 1.364101
v -1.381985 9.510551 2.763971
v -2.046151 8.891926 4.092302
v -2.266180 9.638608 1.400591
v -2.966476 9.129808 2.801185
v -3.571235 8.396388 4.092302
v -2.309478 9.638285 -1.330328
v -3.090164 9.510567 -0.000005
v -3.832067 9.129819 1.400591
v -4.472150 8.506487 2.763972
v -4.970119 7.705201 3.990964
v -2.988853 9.198832 -2.539340
v -3.796804 9.155026 -1.330329
v -4.575268 8.891958 -0.000004
v -5.257320 8.396417 1.364103
v -5.792288 7.705216 2.660647
v -6.163018 6.892656 3.809001
v -8.459821 3.731357 3.808989
v -9.118036 3.127689 2.660634
v -8.863955 2.345766 3.990948
v -9.610080 2.405329 1.364095
v -9.472132 1.624577 2.763959
v -9.089024 0.801776 4.092285
v -9.870594 1.603550 0.000001
v -9.867150 0.823223 1.400587
v -9.599658 -0.000001 2.801174
v -9.089024 -0.801776 4.092287
v -9.880226 0.781918 -1.330309
v -10.000000 -0.000003 0.000007
v -9.867149 -0.823228 1.400593
v -9.472129 -1.624578 2.763966
v -8.863954 -2.345766 3.990953
v -9.672224 -0.000004 -2.539308
v -9.880227 -0.781927 -1.330302
v -9.870593 -1.603559 0.000014
v -9.610076 -2.405336 1.364111
v -9.118032 -3.127694 2.660646
v -8.459817 -3.731359 3.808996
v -6.163020 -6.892655 3.809000
v -5.792293 -7.705214 2.660645
v -4.970123 -7.705198 3.990962
v -5.257325 -8.396414 1.364100
v -4.472157 -8.506485 2.763969
v -3.571241 -8.396387 4.092299
v -4.575273 -8.891955 -0.000006
v -3.832076 -9.129817 1.400587
v -2.966485 -9.129806 2.801180
v -2.046156 -8.891925 4.092299
v -3.796808 -9.155024 -1.330330
v -3.090172 -9.510564 -0.000008
v -2.266189 -9.638607 1.400587
v -1.381993 -9.510550 2.763968
v -0.508168 -9.154998 3.990962
v -2.988855 -9.198831 -2.539341
v -2.309483 -9.638283 -1.330329
v -1.525091 -9.883020 -0.000005
v -0.682055 -9.883018 1.364099
v 0.156994 -9.638275 2.660643
v 0.934508 -9.198816 3.808999
v 4.650846 -7.991316 3.809001
v 5.538197 -7.889826 2.660644
v 5.792259 -7.107883 3.990958
v 6.360879 -7.594633 1.364096
v 6.708203 -6.881898 2.763962
v 6.881903 -5.991042 4.092288
v 7.042931 -7.099094 -0.000011
v 7.498818 -6.465764 1.400577
v 7.766299 -5.642524 2.801166
v 7.824464 -4.693720 4.092279
v 7.533679 -6.440022 -1.330335
v 8.090186 -5.877830 -0.000019
v 8.466594 -5.133733 1.400569
v 8.618041 -4.253232 2.763944
v 8.549921 -3.312296 3.990933
v 7.825010 -5.685153 -2.539345
v 8.452894 -5.174820 -1.330339
v 8.928047 -4.504439 -0.000023
v 9.188560 -3.702656 1.364074
v 9.215079 -2.829037 2.660612
v 9.037398 -1.953772 3.808964
v 2.988856 9.198832 2.539339
v 3.796808 9.155025 1.330326
v 2.309483 9.638285 1.330325
v 4.575274 8.891955 -0.000000
v 3.090172 9.510564 -0.000000
v 1.525091 9.883020 0.000000
v 5.257324 8.396414 -1.364107
v 3.832075 9.129815 -1.400597
v 2.266188 9.638606 -1.400596
v 0.682055 9.883017 -1.364104
v 5.792291 7.705213 -2.660650
v 4.472156 8.506483 -2.763978
v 2.966483 9.129805 -2.801190
v 1.381991 9.510549 -2.763976
v -0.156994 9.638272 -2.660647
v 6.163019 6.892655 -3.809003
v 4.970121 7.705198 -3.990967
v 3.571238 8.396386 -4.092305
v 2.046154 8.891924 -4.092305
v 0.508166 9.154996 -3.990965
v -0.934509 9.198815 -3.809001
v -7.825013 5.685151 2.539335
v -7.533680 6.440024 1.330325
v -8.452900 5.174819 1.330322
v -7.042927 7.099096 -0.000000
v -8.090185 5.877833 -0.000000
v -8.928048 4.504436 0.000000
v -6.360874 7.594637 -1.364105
v -7.498811 6.465770 -1.400594
v -8.466587 5.133737 -1.400591
v -9.188558 3.702653 -1.364097
v -5.538188 7.889829 -2.660649
v -6.708190 6.881907 -2.763973
v -7.766286 5.642533 -2.801182
v -8.618031 4.253239 -2.763963
v -9.215075 2.829037 -2.660630
v -4.650837 7.991322 -3.809002
v -5.792243 7.107893 -3.990962
v -6.881885 5.991057 -4.092296
v -7.824449 4.693736 -4.092290
v -8.549911 3.312308 -3.990945
v -9.037394 1.953776 -3.808975
v -7.825013 -5.685151 2.539335
v -8.452899 -5.174819 1.330322
v -7.533679 -6.440024 1.330325
v -8.928048 -4.504436 -0.000000
v -8.090185 -5.877833 0.000000
v -7.042927 -7.099096 0.000000
v -9.188558 -3.702653 -1.364097
v -8.466587 -5.133737 -1.400591
v -7.498810 -6.465770 -1.400594
v -6.360872 -7.594637 -1.364105
v -9.215075 -2.829037 -2.660630
v -8.618032 -4.253239 -2.763964
v -7.766285 -5.642534 -2.801182
v -6.708189 -6.881907 -2.763973
v -5.538188 -7.889830 -2.660648
v -9.037394 -1.953776 -3.808975
v -8.549911 -3.312308 -3.990945
v -7.824449 -4.693737 -4.092290
v -6.881885 -5.991058 -4.092297
v -5.792242 -7.107893 -3.990963
v -4.650837 -7.991322 -3.809002
v 2.988856 -9.198832 2.539339
v 2.309483 -9.638285 1.330325
v 3.796808 -9.155025 1.330326
v 1.525091 -9.883020 -0.000000
v 3.090172 -9.510565 0.000000
v 4.575274 -8.891955 0.000000
v 0.682055 -9.883018 -1.364105
v 2.266187 -9.638606 -1.400596
v 3.832075 -9.129816 -1.400597
v 5.257324 -8.396414 -1.364106
v -0.156994 -9.638273 -2.660647
v 1.381991 -9.510550 -2.763976
v 2.966483 -9.129804 -2.801190
v 4.472157 -8.506483 -2.763977
v 5.792291 -7.705213 -2.660649
v -0.934509 -9.198814 -3.809001
v 0.508166 -9.154996 -3.990966
v 2.046154 -8.891924 -4.092306
v 3.571239 -8.396386 -4.092306
v 4.970122 -7.705198 -3.990967
v 6.163019 -6.892654 -3.809003
v 9.672222 -0.000000 2.539314
v 9.880226 -0.781920 1.330313
v 9.880226 0.781919 1.330313
v 9.870594 -1.603551 -0.000000
v 10.000000 -0.000000 0.000000
v 9.870594 1.603550 0.000000
v 9.610080 -2.405328 -1.364096
v 9.867151 -0.823224 -1.400586
v 9.867151 0.823224 -1.400586
v 9.610080 2.405328 -1.364096
v 9.118035 -3.127688 -2.660635
v 9.472132 -1.624575 -2.763960
v 9.599658 0.000000 -2.801172
v 9.472132 1.624575 -2.763960
v 9.118035 3.127688 -2.660635
v 8.459821 -3.731357 -3.808991
v 8.863955 -2.345764 -3.990950
v 9.089024 -0.801775 -4.092286
v 9.089024 0.801776 -4.092286
v 8.863955 2.345764 -3.990950
v 8.459821 3.731356 -3.808990
v 5.770661 5.685129 -5.863341
v 4.970092 5.174792 -6.965609
v 4.559022 6.439986 -6.143443
v 3.992724 4.504409 -7.985516
v 3.618035 5.877792 -7.236116
v 3.149706 7.099047 -6.299435
v 2.889158 3.702631 -8.828548
v 2.533658 5.133700 -8.199127
v 2.100872 6.465723 -7.333536
v 1.624627 7.594586 -6.299433
v 1.741380 2.829022 -9.432085
v 1.381968 4.253213 -8.944291
v 0.967786 5.642496 -8.199123
v 0.527891 6.881864 -7.236111
v 0.097083 7.889788 -6.143439
v 0.634823 1.953770 -9.786715
v 0.254074 3.312294 -9.432081
v -0.160989 4.693714 -8.828542
v -0.582503 5.991029 -7.985504
v -0.979154 7.107862 -6.965598
v -1.326845 7.991294 -5.863335
v -3.623666 7.245015 -5.863344
v -3.385694 6.325926 -6.965611
v -4.716006 6.325932 -6.143441
v -3.050143 5.189232 -7.985518
v -4.472106 5.257271 -7.236116
v -5.778321 5.189240 -6.299428
v -2.628624 3.891917 -8.828551
v -4.099520 3.996032 -8.199126
v -5.500097 3.996034 -7.333529
v -6.720884 3.891924 -6.299417
v -2.152453 2.530356 -9.432086
v -3.618012 2.628626 -8.944290
v -5.067298 2.664018 -8.199116
v -6.381948 2.628628 -7.236094
v -7.473670 2.530361 -6.143413
v -1.661980 1.207492 -9.786715
v -3.071678 1.265177 -9.432079
v -4.513755 1.297303 -8.828534
v -5.877836 1.297304 -7.985489
v -7.062584 1.265179 -6.965575
v -8.010221 1.207494 -5.863303
v -8.010220 -1.207496 -5.863304
v -7.062582 -1.265183 -6.965576
v -7.473669 -2.530365 -6.143414
v -5.877833 -1.297310 -7.985491
v -6.381945 -2.628637 -7.236094
v -6.720881 -3.891930 -6.299415
v -4.513754 -1.297312 -8.828533
v -5.067297 -2.664032 -8.199112
v -5.500094 -3.996047 -7.333523
v -5.778320 -5.189248 -6.299422
v -3.071678 -1.265188 -9.432076
v -3.618013 -2.628643 -8.944283
v -4.099520 -3.996051 -8.199118
v -4.472105 -5.257287 -7.236104
v -4.716005 -6.325939 -6.143434
v -1.661981 -1.207504 -9.786713
v -2.152456 -2.530377 -9.432079
v -2.628628 -3.891940 -8.828539
v -3.050146 -5.189254 -7.985502
v -3.385695 -6.325941 -6.965597
v -3.623666 -7.245023 -5.863335
v 7.190154 3.731351 -5.863336
v 7.533636 2.345760 -6.143432
v 6.457399 3.127679 -6.965604
v 7.724925 0.801772 -6.299420
v 6.708169 1.624568 -7.236107
v 5.517797 2.405317 -7.985510
v 7.724926 -0.801777 -6.299419
v 6.798486 -0.000005 -7.333526
v 5.665401 0.823216 -8.199119
v 4.414232 1.603540 -8.828546
v 7.533638 -2.345764 -6.143426
v 6.708174 -1.624577 -7.236099
v 5.665405 -0.823228 -8.199114
v 4.472110 -0.000007 -8.944285
v 3.228691 0.781912 -9.432082
v 7.190158 -3.731355 -5.863328
v 6.457408 -3.127687 -6.965590
v 5.517809 -2.405330 -7.985497
v 4.414245 -1.603555 -8.828536
v 3.228699 -0.781926 -9.432078
v 2.054324 -0.000005 -9.786713
v -1.326841 -7.991288 -5.863343
v -0.979146 -7.107850 -6.965611
v 0.097089 -7.889782 -6.143445
v -0.582490 -5.991010 -7.985518
v 0.527903 -6.881853 -7.236119
v 1.624635 -7.594582 -6.299437
v -0.160974 -4.693695 -8.828550
v 0.967803 -5.642486 -8.199128
v 2.100887 -6.465717 -7.333538
v 3.149714 -7.099045 -6.299433
v 0.254088 -3.312280 -9.432085
v 1.381987 -4.253206 -8.944292
v 2.533678 -5.133698 -8.199123
v 3.618050 -5.877791 -7.236110
v 4.559031 -6.439986 -6.143437
v 0.634835 -1.953765 -9.786715
v 1.741398 -2.829024 -9.432081
v 2.889179 -3.702636 -8.828541
v 3.992742 -4.504415 -7.985503
v 4.970106 -5.174796 -6.965597
v 5.770667 -5.685132 -5.863333
vn 0.0228 -0.0701 -0.9973
vn 0.7255 -0.4735 -0.4994
vn -0.0597 -0.0434 -0.9973
vn -0.0597 0.0434 -0.9973
vn 0.0228 0.0701 -0.9973
vn 0.7711 -0.4735 -0.4256
vn -0.2121 -0.8797 -0.4256
vn -0.9022 -0.0702 -0.4256
vn -0.3455 0.8363 -0.4256
vn 0.6887 0.5870 -0.4256
vn 0.7483 -0.5437 -0.3800
vn -0.2858 -0.8797 -0.3800
vn -0.9250 0.0000 -0.3800
vn -0.2858 0.8797 -0.3800
vn 0.7483 0.5437 -0.3800
vn 0.3086 -0.8096 0.4994
vn -0.6746 -0.5437 0.4994
vn -0.7255 0.4735 0.4994
vn 0.2262 0.8363 0.4994
vn 0.8653 0.0434 0.4994
vn 0.0597 0.0434 0.9973
vn 0.1854 0.0433 0.9817
vn 0.3210 0.0429 0.9461
vn 0.4586 0.0425 0.8876
vn 0.5888 0.0425 0.8072
vn 0.7027 0.0429 0.7102
vn 0.7951 0.0433 0.6049
vn 0.1045 0.0759 0.9916
vn 0.0985 0.1630 0.9817
vn 0.2399 0.0829 0.9672
vn 0.2339 0.1699 0.9573
vn 0.1530 0.2026 0.9672
vn 0.1400 0.2920 0.9461
vn 0.3829 0.0879 0.9196
vn 0.3768 0.1745 0.9097
vn 0.2955 0.2147 0.9309
vn 0.2824 0.3045 0.9097
vn 0.2020 0.3370 0.9196
vn 0.1822 0.4230 0.8876
vn 0.5236 0.0898 0.8472
vn 0.5175 0.1760 0.8374
vn 0.4416 0.2215 0.8694
vn 0.4285 0.3113 0.8482
vn 0.3472 0.3515 0.8694
vn 0.3273 0.4378 0.8374
vn 0.2472 0.4702 0.8472
vn 0.2224 0.5468 0.8072
vn 0.6513 0.0879 0.7537
vn 0.6451 0.1745 0.7439
vn 0.5801 0.2215 0.7838
vn 0.5670 0.3113 0.7626
vn 0.4911 0.3568 0.7947
vn 0.4713 0.4431 0.7626
vn 0.3900 0.4833 0.7838
vn 0.3653 0.5596 0.7439
vn 0.2849 0.5922 0.7537
vn 0.2579 0.6550 0.7102
vn 0.7578 0.0829 0.6472
vn 0.7516 0.1699 0.6373
vn 0.7005 0.2147 0.6806
vn 0.6874 0.3045 0.6594
vn 0.6224 0.3515 0.6993
vn 0.6026 0.4378 0.6673
vn 0.5267 0.4833 0.6993
vn 0.5020 0.5596 0.6594
vn 0.4206 0.5999 0.6806
vn 0.3939 0.6623 0.6373
vn 0.3130 0.6951 0.6472
vn 0.2869 0.7428 0.6049
vn 0.8402 0.0759 0.5369
vn 0.8340 0.1630 0.5271
vn 0.7967 0.2026 0.5694
vn 0.7836 0.2920 0.5483
vn 0.7322 0.3370 0.5919
vn 0.7124 0.4230 0.5599
vn 0.6472 0.4702 0.6000
vn 0.6225 0.5468 0.5599
vn 0.5468 0.5922 0.5919
vn 0.5199 0.6550 0.5483
vn 0.4388 0.6951 0.5694
vn 0.4127 0.7428 0.5271
vn 0.3318 0.7756 0.5369
vn 0.3086 0.8096 0.4994
vn -0.0228 0.0701 0.9973
vn 0.0161 0.1897 0.9817
vn 0.0584 0.3185 0.9461
vn 0.1013 0.4493 0.8876
vn 0.1415 0.5731 0.8072
vn 0.1763 0.6815 0.7102
vn 0.2045 0.7696 0.6049
vn -0.0399 0.1228 0.9916
vn -0.1246 0.1440 0.9817
vn -0.0047 0.2538 0.9672
vn -0.0893 0.2749 0.9573
vn -0.1454 0.2081 0.9672
vn -0.2345 0.2234 0.9461
vn 0.0347 0.3913 0.9196
vn -0.0495 0.4123 0.9097
vn -0.1129 0.3473 0.9309
vn -0.2023 0.3626 0.9097
vn -0.2581 0.2962 0.9196
vn -0.3460 0.3040 0.8876
vn 0.0764 0.5257 0.8472
vn -0.0075 0.5466 0.8374
vn -0.0742 0.4885 0.8694
vn -0.1637 0.5037 0.8482
vn -0.2271 0.4388 0.8694
vn -0.3152 0.4466 0.8374
vn -0.3708 0.3804 0.8472
vn -0.4513 0.3805 0.8072
vn 0.1176 0.6466 0.7537
vn 0.0334 0.6675 0.7439
vn -0.0314 0.6202 0.7838
vn -0.1209 0.6355 0.7626
vn -0.1876 0.5773 0.7947
vn -0.2757 0.5852 0.7626
vn -0.3391 0.5202 0.7838
vn -0.4194 0.5203 0.7439
vn -0.4752 0.4539 0.7537
vn -0.5433 0.4477 0.7102
vn 0.1553 0.7463 0.6472
vn 0.0707 0.7674 0.6373
vn 0.0123 0.7326 0.6806
vn -0.0772 0.7478 0.6594
vn -0.1420 0.7005 0.6993
vn -0.2302 0.7084 0.6673
vn -0.2969 0.6502 0.6993
vn -0.3771 0.6504 0.6594
vn -0.4406 0.5854 0.6806
vn -0.5082 0.5793 0.6373
vn -0.5644 0.5125 0.6472
vn -0.6178 0.5024 0.6049
vn 0.1874 0.8225 0.5369
vn 0.1027 0.8436 0.5271
vn 0.0535 0.8203 0.5694
vn -0.0356 0.8355 0.5483
vn -0.0942 0.8005 0.5919
vn -0.1822 0.8083 0.5599
vn -0.2472 0.7608 0.6000
vn -0.3277 0.7610 0.5599
vn -0.3943 0.7030 0.5919
vn -0.4623 0.6968 0.5483
vn -0.5255 0.6322 0.5694
vn -0.5789 0.6221 0.5271
vn -0.6351 0.5553 0.5369
vn -0.6746 0.5437 0.4994
vn -0.0738 0.0000 0.9973
vn -0.1755 0.0740 0.9817
vn -0.2849 0.1540 0.9461
vn -0.3960 0.2352 0.8876
vn -0.5013 0.3117 0.8072
vn -0.5937 0.3783 0.7102
vn -0.6687 0.4323 0.6049
vn -0.1292 0.0000 0.9916
vn -0.1755 -0.0740 0.9817
vn -0.2428 0.0740 0.9672
vn -0.2891 0.0000 0.9573
vn -0.2428 -0.0740 0.9672
vn -0.2849 -0.1540 0.9461
vn -0.3615 0.1539 0.9196
vn -0.4074 0.0804 0.9097
vn -0.3652 0.0000 0.9309
vn -0.4074 -0.0804 0.9097
vn -0.3615 -0.1539 0.9196
vn -0.3960 -0.2352 0.8876
vn -0.4764 0.2351 0.8472
vn -0.5221 0.1618 0.8374
vn -0.4875 0.0803 0.8694
vn -0.5297 0.0000 0.8482
vn -0.4875 -0.0803 0.8694
vn -0.5221 -0.1618 0.8374
vn -0.4764 -0.2351 0.8472
vn -0.5013 -0.3117 0.8072
vn -0.5786 0.3116 0.7537
vn -0.6245 0.2381 0.7439
vn -0.5996 0.1618 0.7838
vn -0.6417 0.0814 0.7626
vn -0.6071 0.0000 0.7947
vn -0.6417 -0.0814 0.7626
vn -0.5996 -0.1618 0.7838
vn -0.6245 -0.2381 0.7439
vn -0.5786 -0.3116 0.7537
vn -0.5937 -0.3783 0.7102
vn -0.6618 0.3784 0.6472
vn -0.7080 0.3043 0.6373
vn -0.6929 0.2381 0.6806
vn -0.7351 0.1577 0.6594
vn -0.7101 0.0814 0.6993
vn -0.7448 0.0000 0.6673
vn -0.7101 -0.0814 0.6993
vn -0.7351 -0.1577 0.6594
vn -0.6929 -0.2381 0.6806
vn -0.7080 -0.3043 0.6373
vn -0.6618 -0.3784 0.6472
vn -0.6687 -0.4323 0.6049
vn -0.7244 0.4324 0.5369
vn -0.7705 0.3584 0.5271
vn -0.7636 0.3044 0.5694
vn -0.8056 0.2244 0.5483
vn -0.7904 0.1577 0.5919
vn -0.8250 0.0765 0.5599
vn -0.8000 0.0000 0.6000
vn -0.8250 -0.0765 0.5599
vn -0.7904 -0.1577 0.5919
vn -0.8056 -0.2244 0.5483
vn -0.7636 -0.3044 0.5694
vn -0.7705 -0.3584 0.5271
vn -0.7244 -0.4324 0.5369
vn -0.7255 -0.4735 0.4994
vn -0.0228 -0.0701 0.9973
vn -0.1246 -0.1440 0.9817
vn -0.2345 -0.2234 0.9461
vn -0.3460 -0.3040 0.8876
vn -0.4513 -0.3805 0.8072
vn -0.5433 -0.4477 0.7102
vn -0.6178 -0.5024 0.6049
vn -0.0399 -0.1228 0.9916
vn 0.0161 -0.1897 0.9817
vn -0.1454 -0.2081 0.9672
vn -0.0893 -0.2749 0.9573
vn -0.0047 -0.2538 0.9672
vn 0.0584 -0.3185 0.9461
vn -0.2581 -0.2962 0.9196
vn -0.2023 -0.3626 0.9097
vn -0.1129 -0.3473 0.9309
vn -0.0495 -0.4123 0.9097
vn 0.0347 -0.3913 0.9196
vn 0.1013 -0.4493 0.8876
vn -0.3708 -0.3804 0.8472
vn -0.3152 -0.4466 0.8374
vn -0.2271 -0.4388 0.8694
vn -0.1637 -0.5037 0.8482
vn -0.0742 -0.4885 0.8694
vn -0.0075 -0.5466 0.8374
vn 0.0764 -0.5257 0.8472
vn 0.1415 -0.5731 0.8072
vn -0.4752 -0.4539 0.7537
vn -0.4194 -0.5203 0.7439
vn -0.3391 -0.5202 0.7838
vn -0.2757 -0.5852 0.7626
vn -0.1876 -0.5773 0.7947
vn -0.1209 -0.6355 0.7626
vn -0.0314 -0.6202 0.7838
vn 0.0334 -0.6675 0.7439
vn 0.1176 -0.6466 0.7537
vn 0.1763 -0.6815 0.7102
vn -0.5644 -0.5125 0.6472
vn -0.5082 -0.5793 0.6373
vn -0.4406 -0.5854 0.6806
vn -0.3771 -0.6504 0.6594
vn -0.2969 -0.6502 0.6993
vn -0.2302 -0.7084 0.6673
vn -0.1420 -0.7005 0.6993
vn -0.0772 -0.7478 0.6594
vn 0.0123 -0.7326 0.6806
vn 0.0707 -0.7674 0.6373
vn 0.1553 -0.7463 0.6472
vn 0.2045 -0.7696 0.6049
vn -0.6351 -0.5553 0.5369
vn -0.5789 -0.6221 0.5271
vn -0.5255 -0.6322 0.5694
vn -0.4623 -0.6968 0.5483
vn -0.3943 -0.7030 0.5919
vn -0.3277 -0.7610 0.5599
vn -0.2472 -0.7608 0.6000
vn -0.1822 -0.8083 0.5599
vn -0.0942 -0.8005 0.5919
vn -0.0356 -0.8355 0.5483
vn 0.0535 -0.8203 0.5694
vn 0.1027 -0.8436 0.5271
vn 0.1874 -0.8225 0.5369
vn 0.2262 -0.8363 0.4994
vn 0.0597 -0.0434 0.9973
vn 0.0985 -0.1630 0.9817
vn 0.1400 -0.2920 0.9461
vn 0.1822 -0.4230 0.8876
vn 0.2224 -0.5468 0.8072
vn 0.2579 -0.6550 0.7102
vn 0.2869 -0.7428 0.6049
vn 0.1045 -0.0759 0.9916
vn 0.1854 -0.0433 0.9817
vn 0.1530 -0.2026 0.9672
vn 0.2339 -0.1699 0.9573
vn 0.2399 -0.0829 0.9672
vn 0.3210 -0.0429 0.9461
vn 0.2020 -0.3370 0.9196
vn 0.2824 -0.3045 0.9097
vn 0.2955 -0.2147 0.9309
vn 0.3768 -0.1745 0.9097
vn 0.3829 -0.0879 0.9196
vn 0.4586 -0.0425 0.8876
vn 0.2472 -0.4702 0.8472
vn 0.3273 -0.4378 0.8374
vn 0.3472 -0.3515 0.8694
vn 0.4285 -0.3113 0.8482
vn 0.4416 -0.2215 0.8694
vn 0.5175 -0.1760 0.8374
vn 0.5236 -0.0898 0.8472
vn 0.5888 -0.0425 0.8072
vn 0.2849 -0.5922 0.7537
vn 0.3653 -0.5596 0.7439
vn 0.3900 -0.4833 0.7838
vn 0.4713 -0.4431 0.7626
vn 0.4911 -0.3568 0.7947
vn 0.5670 -0.3113 0.7626
vn 0.5801 -0.2215 0.7838
vn 0.6451 -0.1745 0.7439
vn 0.6513 -0.0879 0.7537
vn 0.7027 -0.0429 0.7102
vn 0.3130 -0.6951 0.6472
vn 0.3939 -0.6623 0.6373
vn 0.4206 -0.5999 0.6806
vn 0.5020 -0.5596 0.6594
vn 0.5267 -0.4833 0.6993
vn 0.6026 -0.4378 0.6673
vn 0.6224 -0.3515 0.6993
vn 0.6874 -0.3045 0.6594
vn 0.7005 -0.2147 0.6806
vn 0.7516 -0.1699 0.6373
vn 0.7578 -0.0829 0.6472
vn 0.7951 -0.0433 0.6049
vn 0.3318 -0.7756 0.5369
vn 0.4127 -0.7428 0.5271
vn 0.4388 -0.6951 0.5694
vn 0.5199 -0.6550 0.5483
vn 0.5468 -0.5922 0.5919
vn 0.6225 -0.5468 0.5599
vn 0.6472 -0.4702 0.6000
vn 0.7124 -0.4230 0.5599
vn 0.7322 -0.3370 0.5919
vn 0.7836 -0.2920 0.5483
vn 0.7967 -0.2026 0.5694
vn 0.8340 -0.1630 0.5271
vn 0.8402 -0.0759 0.5369
vn 0.8653 -0.0434 0.4994
vn 0.9022 0.0702 0.4256
vn 0.9338 0.1440 0.3276
vn 0.9511 0.2234 0.2134
vn 0.9487 0.3040 0.0874
vn 0.9238 0.3805 -0.0427
vn 0.8782 0.4477 -0.1683
vn 0.8173 0.5024 -0.2821
vn 0.9048 0.1228 0.4078
vn 0.8708 0.1897 0.4535
vn 0.9301 0.2081 0.3025
vn 0.8962 0.2749 0.3482
vn 0.8672 0.2538 0.4284
vn 0.8201 0.3185 0.4753
vn 0.9379 0.2962 0.1804
vn 0.9041 0.3626 0.2259
vn 0.8831 0.3473 0.3154
vn 0.8358 0.4123 0.3626
vn 0.8070 0.3913 0.4423
vn 0.7486 0.4493 0.4875
vn 0.9236 0.3804 0.0472
vn 0.8899 0.4466 0.0925
vn 0.8792 0.4388 0.1857
vn 0.8319 0.5037 0.2329
vn 0.8108 0.4885 0.3224
vn 0.7523 0.5466 0.3678
vn 0.7236 0.5257 0.4472
vn 0.6587 0.5731 0.4875
vn 0.8867 0.4539 -0.0879
vn 0.8529 0.5203 -0.0424
vn 0.8527 0.5202 0.0472
vn 0.8054 0.5852 0.0944
vn 0.7947 0.5773 0.1876
vn 0.7362 0.6355 0.2329
vn 0.7151 0.6202 0.3224
vn 0.6504 0.6675 0.3626
vn 0.6216 0.6466 0.4423
vn 0.5564 0.6815 0.4754
vn 0.8312 0.5125 -0.2154
vn 0.7973 0.5793 -0.1696
vn 0.8058 0.5854 -0.0897
vn 0.7584 0.6504 -0.0424
vn 0.7583 0.6502 0.0472
vn 0.6998 0.7084 0.0925
vn 0.6890 0.7005 0.1857
vn 0.6243 0.7478 0.2259
vn 0.6032 0.7326 0.3154
vn 0.5384 0.7674 0.3482
vn 0.5094 0.7464 0.4284
vn 0.4496 0.7696 0.4535
vn 0.7643 0.5553 -0.3279
vn 0.7304 0.6221 -0.2821
vn 0.7443 0.6322 -0.2154
vn 0.6972 0.6968 -0.1683
vn 0.7057 0.7030 -0.0879
vn 0.6473 0.7610 -0.0427
vn 0.6472 0.7608 0.0472
vn 0.5823 0.8083 0.0874
vn 0.5716 0.8005 0.1804
vn 0.5063 0.8355 0.2134
vn 0.4853 0.8203 0.3025
vn 0.4255 0.8436 0.3276
vn 0.3964 0.8225 0.4078
vn 0.3455 0.8363 0.4256
vn 0.2121 0.8797 0.4256
vn 0.1516 0.9326 0.3276
vn 0.0815 0.9736 0.2134
vn -0.1544 0.9736 -0.1683
vn -0.2252 0.9326 -0.2821
vn 0.1628 0.8985 0.4078
vn 0.0886 0.8869 0.4535
vn 0.0895 0.9489 0.3025
vn 0.0155 0.9373 0.3482
vn 0.0266 0.9032 0.4284
vn -0.0495 0.8784 0.4754
vn 0.0081 0.9836 0.1804
vn -0.0655 0.9720 0.2259
vn -0.0574 0.9472 0.3154
vn -0.1339 0.9223 0.3626
vn -0.1228 0.8884 0.4423
vn -0.1960 0.8508 0.4875
vn -0.1456 0.9717 0.1857
vn -0.2220 0.9468 0.2329
vn -0.2140 0.9221 0.3224
vn -0.2874 0.8844 0.3678
vn -0.2764 0.8506 0.4472
vn -0.3415 0.8035 0.4875
vn -0.3076 0.9468 0.0944
vn -0.3035 0.9342 0.1876
vn -0.3769 0.8965 0.2329
vn -0.3689 0.8718 0.3224
vn -0.4338 0.8248 0.3626
vn -0.4228 0.7909 0.4423
vn -0.4763 0.7397 0.4753
vn -0.2306 0.9489 -0.2154
vn -0.3045 0.9373 -0.1696
vn -0.3078 0.9472 -0.0897
vn -0.3842 0.9223 -0.0424
vn -0.3841 0.9221 0.0472
vn -0.4575 0.8844 0.0925
vn -0.4533 0.8718 0.1857
vn -0.5183 0.8248 0.2259
vn -0.5103 0.8001 0.3154
vn -0.5634 0.7492 0.3482
vn -0.5524 0.7151 0.4284
vn -0.5930 0.6654 0.4535
vn -0.2919 0.8985 -0.3279
vn -0.3659 0.8869 -0.2821
vn -0.3712 0.9032 -0.2154
vn -0.4473 0.8784 -0.1683
vn -0.4505 0.8884 -0.0879
vn -0.5237 0.8508 -0.0427
vn -0.5236 0.8507 0.0472
vn -0.5888 0.8035 0.0874
vn -0.5847 0.7909 0.1804
vn -0.6382 0.7397 0.2134
vn -0.6302 0.7151 0.3025
vn -0.6708 0.6654 0.3276
vn -0.6598 0.6312 0.4078
vn -0.6887 0.5870 0.4256
vn -0.7711 0.4735 0.4256
vn -0.8401 0.4323 0.3276
vn -0.9007 0.3783 0.2134
vn -0.9462 0.3117 0.0874
vn -0.9710 0.2352 -0.0427
vn -0.9736 0.1540 -0.1683
vn -0.9565 0.0740 -0.2821
vn -0.8042 0.4324 0.4078
vn -0.8161 0.3584 0.4535
vn -0.8748 0.3784 0.3025
vn -0.8866 0.3043 0.3482
vn -0.8508 0.3044 0.4284
vn -0.8507 0.2244 0.4753
vn -0.9329 0.3116 0.1804
vn -0.9446 0.2381 0.2259
vn -0.9186 0.2381 0.3154
vn -0.9185 0.1577 0.3626
vn -0.8829 0.1577 0.4423
vn -0.8697 0.0765 0.4875
vn -0.9708 0.2351 0.0472
vn -0.9825 0.1618 0.0925
vn -0.9692 0.1618 0.1857
vn -0.9691 0.0814 0.2329
vn -0.9431 0.0814 0.3224
vn -0.9299 0.0000 0.3678
vn -0.8944 0.0000 0.4472
vn -0.8697 -0.0765 0.4875
vn -0.9842 0.1539 -0.0879
vn -0.9959 0.0804 -0.0424
vn -0.9956 0.0803 0.0472
vn -0.9955 0.0000 0.0944
vn -0.9822 0.0000 0.1876
vn -0.9691 -0.0814 0.2329
vn -0.9431 -0.0814 0.3224
vn -0.9185 -0.1577 0.3626
vn -0.8829 -0.1577 0.4423
vn -0.8507 -0.2244 0.4753
vn -0.9737 0.0740 -0.2154
vn -0.9855 0.0000 -0.1696
vn -0.9960 0.0000 -0.0897
vn -0.9959 -0.0804 -0.0424
vn -0.9956 -0.0803 0.0472
vn -0.9825 -0.1618 0.0925
vn -0.9692 -0.1618 0.1857
vn -0.9446 -0.2381 0.2259
vn -0.9186 -0.2381 0.3154
vn -0.8866 -0.3043 0.3482
vn -0.8508 -0.3044 0.4284
vn -0.8161 -0.3584 0.4535
vn -0.9447 0.0000 -0.3279
vn -0.9565 -0.0740 -0.2821
vn -0.9737 -0.0740 -0.2154
vn -0.9736 -0.1540 -0.1683
vn -0.9842 -0.1539 -0.0879
vn -0.9710 -0.2352 -0.0427
vn -0.9708 -0.2351 0.0472
vn -0.9462 -0.3117 0.0874
vn -0.9329 -0.3116 0.1804
vn -0.9007 -0.3783 0.2134
vn -0.8748 -0.3784 0.3025
vn -0.8401 -0.4323 0.3276
vn -0.8042 -0.4324 0.4078
vn -0.7711 -0.4735 0.4256
vn -0.6887 -0.5870 0.4256
vn -0.6708 -0.6654 0.3276
vn -0.6382 -0.7397 0.2134
vn -0.5888 -0.8035 0.0874
vn -0.5237 -0.8508 -0.0427
vn -0.4473 -0.8784 -0.1683
vn -0.3659 -0.8869 -0.2821
vn -0.6598 -0.6312 0.4078
vn -0.5930 -0.6654 0.4535
vn -0.6302 -0.7151 0.3025
vn -0.5634 -0.7492 0.3482
vn -0.5524 -0.7151 0.4284
vn -0.4763 -0.7397 0.4753
vn -0.5847 -0.7909 0.1804
vn -0.5183 -0.8248 0.2259
vn -0.5103 -0.8001 0.3154
vn -0.4338 -0.8248 0.3626
vn -0.4228 -0.7909 0.4423
vn -0.3415 -0.8035 0.4875
vn -0.5236 -0.8507 0.0472
vn -0.4575 -0.8844 0.0925
vn -0.4533 -0.8718 0.1857
vn -0.3769 -0.8965 0.2329
vn -0.3689 -0.8718 0.3224
vn -0.2874 -0.8844 0.3678
vn -0.2764 -0.8506 0.4472
vn -0.1960 -0.8508 0.4875
vn -0.4505 -0.8884 -0.0879
vn -0.3842 -0.9223 -0.0424
vn -0.3841 -0.9221 0.0472
vn -0.3076 -0.9468 0.0944
vn -0.3035 -0.9342 0.1876
vn -0.2220 -0.9468 0.2329
vn -0.2140 -0.9221 0.3224
vn -0.1339 -0.9223 0.3626
vn -0.1228 -0.8884 0.4423
vn -0.0495 -0.8784 0.4753
vn -0.3712 -0.9032 -0.2154
vn -0.3045 -0.9373 -0.1696
vn -0.3078 -0.9472 -0.0897
vn -0.2313 -0.9720 -0.0424
vn -0.2313 -0.9717 0.0472
vn -0.1497 -0.9844 0.0925
vn -0.1456 -0.9717 0.1857
vn -0.0655 -0.9720 0.2259
vn -0.0574 -0.9472 0.3154
vn 0.0155 -0.9373 0.3482
vn 0.0266 -0.9032 0.4284
vn 0.0886 -0.8869 0.4535
vn -0.2919 -0.8985 -0.3279
vn -0.2252 -0.9326 -0.2821
vn -0.2306 -0.9489 -0.2154
vn -0.1544 -0.9736 -0.1683
vn -0.1577 -0.9836 -0.0879
vn -0.0764 -0.9962 -0.0427
vn -0.0764 -0.9960 0.0472
vn 0.0040 -0.9962 0.0874
vn 0.0081 -0.9836 0.1804
vn 0.0815 -0.9736 0.2134
vn 0.0895 -0.9489 0.3025
vn 0.1516 -0.9326 0.3276
vn 0.1628 -0.8985 0.4078
vn 0.2121 -0.8797 0.4256
vn 0.3455 -0.8363 0.4256
vn 0.4255 -0.8436 0.3276
vn 0.5063 -0.8355 0.2134
vn 0.5823 -0.8083 0.0874
vn 0.6473 -0.7610 -0.0427
vn 0.6972 -0.6968 -0.1683
vn 0.7304 -0.6221 -0.2821
vn 0.3964 -0.8225 0.4078
vn 0.4496 -0.7696 0.4535
vn 0.4853 -0.8203 0.3025
vn 0.5384 -0.7674 0.3482
vn 0.5094 -0.7464 0.4284
vn 0.5564 -0.6815 0.4753
vn 0.5716 -0.8005 0.1804
vn 0.6243 -0.7478 0.2259
vn 0.6032 -0.7326 0.3154
vn 0.6504 -0.6675 0.3626
vn 0.6216 -0.6466 0.4423
vn 0.6587 -0.5731 0.4875
vn 0.6472 -0.7608 0.0472
vn 0.6998 -0.7084 0.0925
vn 0.6890 -0.7005 0.1857
vn 0.7362 -0.6355 0.2329
vn 0.7151 -0.6202 0.3224
vn 0.7523 -0.5466 0.3678
vn 0.7236 -0.5257 0.4472
vn 0.7486 -0.4493 0.4875
vn 0.7057 -0.7030 -0.0879
vn 0.7584 -0.6504 -0.0424
vn 0.7583 -0.6502 0.0472
vn 0.8054 -0.5852 0.0944
vn 0.7947 -0.5773 0.1876
vn 0.8319 -0.5037 0.2329
vn 0.8108 -0.4885 0.3224
vn 0.8358 -0.4123 0.3626
vn 0.8070 -0.3913 0.4423
vn 0.8201 -0.3185 0.4753
vn 0.7443 -0.6322 -0.2154
vn 0.7973 -0.5793 -0.1696
vn 0.8058 -0.5854 -0.0897
vn 0.8529 -0.5203 -0.0424
vn 0.8527 -0.5202 0.0472
vn 0.8899 -0.4466 0.0925
vn 0.8792 -0.4388 0.1857
vn 0.9041 -0.3626 0.2259
vn 0.8831 -0.3473 0.3154
vn 0.8962 -0.2749 0.3482
vn 0.8672 -0.2538 0.4284
vn 0.8708 -0.1897 0.4535
vn 0.7643 -0.5553 -0.3279
vn 0.8173 -0.5024 -0.2821
vn 0.8312 -0.5125 -0.2154
vn 0.8782 -0.4477 -0.1683
vn 0.8867 -0.4540 -0.0879
vn 0.9238 -0.3805 -0.0427
vn 0.9236 -0.3804 0.0472
vn 0.9487 -0.3040 0.0874
vn 0.9379 -0.2962 0.1804
vn 0.9511 -0.2234 0.2134
vn 0.9301 -0.2081 0.3025
vn 0.9338 -0.1440 0.3276
vn 0.9048 -0.1228 0.4078
vn 0.9022 -0.0702 0.4256
vn 0.2858 0.8797 0.3800
vn 0.3659 0.8869 0.2821
vn 0.4473 0.8784 0.1683
vn 0.5237 0.8508 0.0427
vn 0.5888 0.8035 -0.0874
vn 0.6382 0.7397 -0.2134
vn 0.6708 0.6654 -0.3276
vn 0.2919 0.8985 0.3279
vn 0.2252 0.9326 0.2821
vn 0.3712 0.9032 0.2154
vn 0.3045 0.9373 0.1696
vn 0.2306 0.9489 0.2154
vn 0.1544 0.9736 0.1683
vn 0.4505 0.8884 0.0879
vn 0.3842 0.9223 0.0424
vn 0.3078 0.9472 0.0897
vn 0.2313 0.9720 0.0424
vn 0.1577 0.9836 0.0879
vn 0.5236 0.8507 -0.0472
vn 0.4575 0.8844 -0.0925
vn 0.3841 0.9221 -0.0472
vn 0.3076 0.9468 -0.0944
vn 0.2313 0.9717 -0.0472
vn 0.1497 0.9844 -0.0925
vn 0.5847 0.7909 -0.1804
vn 0.5183 0.8248 -0.2259
vn 0.4533 0.8718 -0.1857
vn 0.3769 0.8965 -0.2329
vn 0.3035 0.9342 -0.1876
vn 0.2220 0.9468 -0.2329
vn 0.1456 0.9717 -0.1857
vn 0.0655 0.9720 -0.2259
vn -0.0081 0.9836 -0.1804
vn -0.0815 0.9736 -0.2134
vn 0.6302 0.7151 -0.3025
vn 0.5634 0.7492 -0.3482
vn 0.5103 0.8001 -0.3154
vn 0.4338 0.8248 -0.3626
vn 0.3689 0.8718 -0.3224
vn 0.2874 0.8844 -0.3678
vn 0.2140 0.9221 -0.3224
vn 0.1339 0.9223 -0.3626
vn 0.0574 0.9472 -0.3154
vn -0.0155 0.9373 -0.3482
vn -0.0895 0.9489 -0.3025
vn -0.1516 0.9326 -0.3276
vn 0.6598 0.6312 -0.4078
vn 0.5930 0.6654 -0.4535
vn 0.5524 0.7151 -0.4284
vn 0.4763 0.7397 -0.4753
vn 0.4228 0.7909 -0.4423
vn 0.3415 0.8035 -0.4875
vn 0.2764 0.8506 -0.4472
vn 0.1960 0.8508 -0.4875
vn 0.1228 0.8884 -0.4423
vn 0.0495 0.8784 -0.4753
vn -0.0266 0.9032 -0.4284
vn -0.0886 0.8869 -0.4535
vn -0.1628 0.8985 -0.4078
vn -0.2121 0.8797 -0.4256
vn -0.7483 0.5437 0.3800
vn -0.7304 0.6221 0.2821
vn -0.6972 0.6968 0.1683
vn -0.6473 0.7610 0.0427
vn -0.5823 0.8083 -0.0874
vn -0.5063 0.8355 -0.2134
vn -0.4255 0.8436 -0.3276
vn -0.7643 0.5553 0.3279
vn -0.8173 0.5024 0.2821
vn -0.7443 0.6322 0.2154
vn -0.7973 0.5793 0.1696
vn -0.8312 0.5125 0.2154
vn -0.8782 0.4477 0.1683
vn -0.7057 0.7030 0.0879
vn -0.7584 0.6504 0.0424
vn -0.8058 0.5854 0.0897
vn -0.8529 0.5203 0.0424
vn -0.8867 0.4539 0.0879
vn -0.9238 0.3805 0.0427
vn -0.6472 0.7608 -0.0472
vn -0.6998 0.7084 -0.0925
vn -0.7583 0.6502 -0.0472
vn -0.8054 0.5852 -0.0944
vn -0.8527 0.5202 -0.0472
vn -0.8899 0.4466 -0.0925
vn -0.9236 0.3804 -0.0472
vn -0.9487 0.3040 -0.0874
vn -0.5716 0.8005 -0.1804
vn -0.6243 0.7478 -0.2259
vn -0.6890 0.7005 -0.1857
vn -0.7362 0.6355 -0.2329
vn -0.7947 0.5773 -0.1876
vn -0.8319 0.5037 -0.2329
vn -0.8792 0.4388 -0.1857
vn -0.9041 0.3626 -0.2259
vn -0.9379 0.2962 -0.1804
vn -0.9511 0.2234 -0.2134
vn -0.4853 0.8203 -0.3025
vn -0.5384 0.7674 -0.3482
vn -0.6032 0.7326 -0.3154
vn -0.6504 0.6675 -0.3626
vn -0.7151 0.6202 -0.3224
vn -0.7523 0.5466 -0.3678
vn -0.8108 0.4885 -0.3224
vn -0.8358 0.4123 -0.3626
vn -0.8831 0.3473 -0.3154
vn -0.8962 0.2749 -0.3482
vn -0.9301 0.2081 -0.3025
vn -0.9338 0.1440 -0.3276
vn -0.3964 0.8225 -0.4078
vn -0.4496 0.7696 -0.4535
vn -0.5094 0.7464 -0.4284
vn -0.5564 0.6815 -0.4753
vn -0.6216 0.6466 -0.4423
vn -0.6587 0.5731 -0.4875
vn -0.7236 0.5257 -0.4472
vn -0.7486 0.4493 -0.4875
vn -0.8070 0.3913 -0.4423
vn -0.8201 0.3185 -0.4753
vn -0.8672 0.2538 -0.4284
vn -0.8708 0.1897 -0.4535
vn -0.9048 0.1228 -0.4078
vn -0.9022 0.0701 -0.4256
vn -0.7483 -0.5437 0.3800
vn -0.8173 -0.5024 0.2821
vn -0.8782 -0.4477 0.1683
vn -0.9238 -0.3805 0.0427
vn -0.9487 -0.3040 -0.0874
vn -0.9511 -0.2234 -0.2134
vn -0.9338 -0.1440 -0.3276
vn -0.7643 -0.5553 0.3279
vn -0.7304 -0.6221 0.2821
vn -0.8312 -0.5125 0.2154
vn -0.7973 -0.5793 0.1696
vn -0.7443 -0.6322 0.2154
vn -0.6972 -0.6968 0.1683
vn -0.8867 -0.4539 0.0879
vn -0.8529 -0.5203 0.0424
vn -0.8058 -0.5854 0.0897
vn -0.7584 -0.6504 0.0424
vn -0.7057 -0.7030 0.0879
vn -0.6473 -0.7610 0.0427
vn -0.9236 -0.3804 -0.0472
vn -0.8899 -0.4466 -0.0925
vn -0.8527 -0.5202 -0.0472
vn -0.8054 -0.5852 -0.0944
vn -0.7583 -0.6502 -0.0472
vn -0.6998 -0.7084 -0.0925
vn -0.6472 -0.7608 -0.0472
vn -0.5823 -0.8083 -0.0874
vn -0.9379 -0.2962 -0.1804
vn -0.9041 -0.3626 -0.2259
vn -0.8792 -0.4388 -0.1857
vn -0.8319 -0.5038 -0.2329
vn -0.7947 -0.5773 -0.1876
vn -0.7362 -0.6355 -0.2329
vn -0.6890 -0.7005 -0.1857
vn -0.6243 -0.7478 -0.2259
vn -0.5716 -0.8005 -0.1804
vn -0.5063 -0.8355 -0.2134
vn -0.9301 -0.2081 -0.3025
vn -0.8962 -0.2749 -0.3482
vn -0.8831 -0.3473 -0.3154
vn -0.8358 -0.4123 -0.3626
vn -0.8108 -0.4885 -0.3224
vn -0.7523 -0.5466 -0.3678
vn -0.7151 -0.6202 -0.3224
vn -0.6504 -0.6675 -0.3626
vn -0.6032 -0.7326 -0.3154
vn -0.5384 -0.7674 -0.3482
vn -0.4853 -0.8203 -0.3025
vn -0.4255 -0.8436 -0.3276
vn -0.9048 -0.1228 -0.4078
vn -0.8708 -0.1897 -0.4535
vn -0.8672 -0.2538 -0.4284
vn -0.8201 -0.3185 -0.4753
vn -0.8070 -0.3913 -0.4423
vn -0.7486 -0.4493 -0.4875
vn -0.7236 -0.5257 -0.4472
vn -0.6587 -0.5731 -0.4875
vn -0.6216 -0.6466 -0.4423
vn -0.5564 -0.6815 -0.4754
vn -0.5094 -0.7464 -0.4284
vn -0.4496 -0.7696 -0.4535
vn -0.3964 -0.8225 -0.4078
vn -0.3455 -0.8363 -0.4256
vn 0.2858 -0.8797 0.3800
vn 0.2252 -0.9326 0.2821
vn 0.1544 -0.9736 0.1683
vn 0.0764 -0.9962 0.0427
vn -0.0040 -0.9962 -0.0874
vn -0.0815 -0.9736 -0.2134
vn -0.1516 -0.9326 -0.3276
vn 0.2919 -0.8985 0.3279
vn 0.3659 -0.8869 0.2821
vn 0.2306 -0.9489 0.2154
vn 0.3045 -0.9373 0.1696
vn 0.3712 -0.9032 0.2154
vn 0.4473 -0.8784 0.1683
vn 0.1577 -0.9836 0.0879
vn 0.2313 -0.9720 0.0424
vn 0.3078 -0.9472 0.0897
vn 0.3842 -0.9223 0.0424
vn 0.4505 -0.8884 0.0879
vn 0.5237 -0.8508 0.0427
vn 0.0764 -0.9960 -0.0472
vn 0.1497 -0.9844 -0.0925
vn 0.2313 -0.9717 -0.0472
vn 0.3076 -0.9468 -0.0944
vn 0.3841 -0.9221 -0.0472
vn 0.4575 -0.8844 -0.0925
vn 0.5236 -0.8507 -0.0472
vn 0.5888 -0.8035 -0.0874
vn -0.0081 -0.9836 -0.1804
vn 0.0655 -0.9720 -0.2259
vn 0.1456 -0.9717 -0.1857
vn 0.2220 -0.9468 -0.2329
vn 0.3035 -0.9342 -0.1876
vn 0.3769 -0.8965 -0.2329
vn 0.4533 -0.8718 -0.1857
vn 0.5183 -0.8248 -0.2259
vn 0.5847 -0.7909 -0.1804
vn 0.6382 -0.7397 -0.2134
vn -0.0895 -0.9489 -0.3025
vn -0.0155 -0.9373 -0.3482
vn 0.0574 -0.9472 -0.3154
vn 0.1339 -0.9223 -0.3626
vn 0.2140 -0.9221 -0.3224
vn 0.2874 -0.8844 -0.3678
vn 0.3689 -0.8718 -0.3224
vn 0.4338 -0.8248 -0.3626
vn 0.5103 -0.8001 -0.3154
vn 0.5634 -0.7492 -0.3482
vn 0.6302 -0.7151 -0.3025
vn 0.6708 -0.6654 -0.3276
vn -0.1628 -0.8985 -0.4078
vn -0.0886 -0.8869 -0.4535
vn -0.0266 -0.9032 -0.4284
vn 0.0495 -0.8784 -0.4754
vn 0.1228 -0.8884 -0.4423
vn 0.1960 -0.8508 -0.4875
vn 0.2764 -0.8506 -0.4472
vn 0.3415 -0.8035 -0.4875
vn 0.4228 -0.7909 -0.4423
vn 0.4763 -0.7397 -0.4754
vn 0.5524 -0.7151 -0.4284
vn 0.5930 -0.6654 -0.4535
vn 0.6598 -0.6312 -0.4078
vn 0.6887 -0.5870 -0.4256
vn 0.9250 0.0000 0.3800
vn 0.9565 -0.0740 0.2821
vn 0.9736 -0.1540 0.1683
vn 0.9710 -0.2352 0.0427
vn 0.9462 -0.3117 -0.0874
vn 0.9007 -0.3783 -0.2134
vn 0.8401 -0.4323 -0.3276
vn 0.9447 -0.0000 0.3279
vn 0.9565 0.0740 0.2821
vn 0.9737 -0.0740 0.2154
vn 0.9855 0.0000 0.1696
vn 0.9737 0.0740 0.2154
vn 0.9736 0.1540 0.1683
vn 0.9842 -0.1539 0.0879
vn 0.9959 -0.0804 0.0424
vn 0.9960 0.0000 0.0897
vn 0.9959 0.0804 0.0424
vn 0.9842 0.1539 0.0879
vn 0.9710 0.2352 0.0427
vn 0.9708 -0.2351 -0.0472
vn 0.9825 -0.1618 -0.0925
vn 0.9956 -0.0803 -0.0472
vn 0.9955 0.0000 -0.0944
vn 0.9956 0.0803 -0.0472
vn 0.9825 0.1618 -0.0925
vn 0.9708 0.2351 -0.0472
vn 0.9462 0.3117 -0.0874
vn 0.9329 -0.3116 -0.1804
vn 0.9446 -0.2381 -0.2259
vn 0.9692 -0.1618 -0.1857
vn 0.9691 -0.0814 -0.2329
vn 0.9822 -0.0000 -0.1876
vn 0.9691 0.0814 -0.2329
vn 0.9692 0.1618 -0.1857
vn 0.9446 0.2381 -0.2259
vn 0.9329 0.3116 -0.1804
vn 0.9007 0.3783 -0.2134
vn 0.8748 -0.3784 -0.3025
vn 0.8866 -0.3043 -0.3482
vn 0.9186 -0.2381 -0.3154
vn 0.9185 -0.1577 -0.3626
vn 0.9431 -0.0814 -0.3224
vn 0.9299 0.0000 -0.3678
vn 0.9431 0.0814 -0.3224
vn 0.9185 0.1577 -0.3626
vn 0.9186 0.2381 -0.3154
vn 0.8866 0.3043 -0.3482
vn 0.8748 0.3784 -0.3025
vn 0.8401 0.4323 -0.3276
vn 0.8042 -0.4324 -0.4078
vn 0.8161 -0.3584 -0.4535
vn 0.8508 -0.3044 -0.4284
vn 0.8507 -0.2244 -0.4753
vn 0.8829 -0.1577 -0.4423
vn 0.8697 -0.0765 -0.4875
vn 0.8944 0.0000 -0.4472
vn 0.8697 0.0765 -0.4875
vn 0.8829 0.1577 -0.4423
vn 0.8507 0.2244 -0.4753
vn 0.8508 0.3044 -0.4284
vn 0.8161 0.3584 -0.4535
vn 0.8042 0.4324 -0.4078
vn 0.7711 0.4735 -0.4256
vn 0.6746 0.5437 -0.4994
vn 0.6178 0.5024 -0.6049
vn 0.5433 0.4477 -0.7102
vn 0.4513 0.3805 -0.8072
vn 0.3460 0.3040 -0.8876
vn 0.2345 0.2234 -0.9461
vn 0.1246 0.1440 -0.9817
vn 0.6351 0.5553 -0.5369
vn 0.5789 0.6221 -0.5271
vn 0.5644 0.5125 -0.6472
vn 0.5082 0.5793 -0.6373
vn 0.5255 0.6322 -0.5694
vn 0.4623 0.6968 -0.5483
vn 0.4752 0.4539 -0.7537
vn 0.4194 0.5203 -0.7439
vn 0.4406 0.5854 -0.6806
vn 0.3771 0.6504 -0.6594
vn 0.3943 0.7030 -0.5919
vn 0.3277 0.7610 -0.5599
vn 0.3708 0.3804 -0.8472
vn 0.3152 0.4466 -0.8374
vn 0.3391 0.5202 -0.7838
vn 0.2757 0.5852 -0.7626
vn 0.2969 0.6502 -0.6993
vn 0.2302 0.7084 -0.6673
vn 0.2472 0.7608 -0.6000
vn 0.1822 0.8083 -0.5599
vn 0.2581 0.2962 -0.9196
vn 0.2023 0.3626 -0.9097
vn 0.2271 0.4388 -0.8694
vn 0.1637 0.5037 -0.8482
vn 0.1876 0.5773 -0.7947
vn 0.1209 0.6355 -0.7626
vn 0.1420 0.7005 -0.6993
vn 0.0772 0.7478 -0.6594
vn 0.0942 0.8005 -0.5919
vn 0.0356 0.8355 -0.5483
vn 0.1454 0.2081 -0.9672
vn 0.0893 0.2749 -0.9573
vn 0.1129 0.3473 -0.9309
vn 0.0495 0.4123 -0.9097
vn 0.0742 0.4885 -0.8694
vn 0.0075 0.5466 -0.8374
vn 0.0314 0.6202 -0.7838
vn -0.0334 0.6675 -0.7439
vn -0.0123 0.7326 -0.6806
vn -0.0707 0.7674 -0.6373
vn -0.0535 0.8203 -0.5694
vn -0.1027 0.8436 -0.5271
vn 0.0399 0.1228 -0.9916
vn -0.0161 0.1897 -0.9817
vn 0.0047 0.2538 -0.9672
vn -0.0584 0.3185 -0.9461
vn -0.0347 0.3913 -0.9196
vn -0.1013 0.4493 -0.8876
vn -0.0764 0.5257 -0.8472
vn -0.1415 0.5731 -0.8072
vn -0.1176 0.6466 -0.7537
vn -0.1763 0.6815 -0.7102
vn -0.1553 0.7464 -0.6472
vn -0.2045 0.7696 -0.6049
vn -0.1874 0.8225 -0.5369
vn -0.2262 0.8363 -0.4994
vn -0.3086 0.8096 -0.4994
vn -0.2869 0.7428 -0.6049
vn -0.2579 0.6550 -0.7102
vn -0.2224 0.5468 -0.8072
vn -0.1822 0.4230 -0.8876
vn -0.1400 0.2920 -0.9461
vn -0.0985 0.1630 -0.9817
vn -0.3318 0.7756 -0.5369
vn -0.4127 0.7428 -0.5271
vn -0.3130 0.6951 -0.6472
vn -0.3939 0.6623 -0.6373
vn -0.4389 0.6951 -0.5694
vn -0.5199 0.6550 -0.5483
vn -0.2849 0.5922 -0.7537
vn -0.3653 0.5596 -0.7439
vn -0.4206 0.5999 -0.6806
vn -0.5020 0.5596 -0.6594
vn -0.5468 0.5922 -0.5919
vn -0.6225 0.5468 -0.5599
vn -0.2472 0.4702 -0.8472
vn -0.3273 0.4378 -0.8374
vn -0.3900 0.4833 -0.7838
vn -0.4713 0.4431 -0.7626
vn -0.5267 0.4833 -0.6993
vn -0.6026 0.4378 -0.6673
vn -0.6472 0.4702 -0.6000
vn -0.7124 0.4230 -0.5599
vn -0.2020 0.3370 -0.9196
vn -0.2824 0.3045 -0.9097
vn -0.3472 0.3515 -0.8694
vn -0.4285 0.3113 -0.8482
vn -0.4911 0.3568 -0.7947
vn -0.5670 0.3113 -0.7626
vn -0.6224 0.3515 -0.6993
vn -0.6874 0.3045 -0.6594
vn -0.7322 0.3370 -0.5919
vn -0.7836 0.2920 -0.5483
vn -0.1530 0.2026 -0.9672
vn -0.2339 0.1699 -0.9573
vn -0.2955 0.2147 -0.9309
vn -0.3768 0.1745 -0.9097
vn -0.4416 0.2215 -0.8694
vn -0.5175 0.1760 -0.8374
vn -0.5801 0.2215 -0.7838
vn -0.6451 0.1745 -0.7439
vn -0.7005 0.2147 -0.6806
vn -0.7516 0.1699 -0.6373
vn -0.7967 0.2026 -0.5694
vn -0.8340 0.1630 -0.5271
vn -0.1045 0.0759 -0.9916
vn -0.1854 0.0433 -0.9817
vn -0.2399 0.0829 -0.9672
vn -0.3210 0.0429 -0.9461
vn -0.3829 0.0879 -0.9196
vn -0.4586 0.0425 -0.8876
vn -0.5236 0.0898 -0.8472
vn -0.5888 0.0425 -0.8072
vn -0.6513 0.0879 -0.7537
vn -0.7027 0.0429 -0.7102
vn -0.7578 0.0829 -0.6472
vn -0.7951 0.0433 -0.6049
vn -0.8402 0.0759 -0.5369
vn -0.8653 0.0434 -0.4994
vn -0.8653 -0.0434 -0.4994
vn -0.7951 -0.0433 -0.6049
vn -0.7027 -0.0429 -0.7102
vn -0.5888 -0.0425 -0.8072
vn -0.4586 -0.0425 -0.8876
vn -0.3210 -0.0429 -0.9461
vn -0.1854 -0.0433 -0.9817
vn -0.8402 -0.0759 -0.5369
vn -0.8340 -0.1630 -0.5271
vn -0.7578 -0.0829 -0.6472
vn -0.7516 -0.1699 -0.6373
vn -0.7967 -0.2026 -0.5694
vn -0.7836 -0.2920 -0.5483
vn -0.6513 -0.0879 -0.7537
vn -0.6451 -0.1745 -0.7439
vn -0.7005 -0.2147 -0.6806
vn -0.6874 -0.3045 -0.6594
vn -0.7322 -0.3370 -0.5919
vn -0.7124 -0.4230 -0.5599
vn -0.5236 -0.0898 -0.8472
vn -0.5175 -0.1760 -0.8374
vn -0.5801 -0.2215 -0.7838
vn -0.5670 -0.3113 -0.7626
vn -0.6224 -0.3515 -0.6993
vn -0.6026 -0.4378 -0.6673
vn -0.6472 -0.4702 -0.6000
vn -0.6225 -0.5468 -0.5599
vn -0.3829 -0.0879 -0.9196
vn -0.3768 -0.1745 -0.9097
vn -0.4416 -0.2215 -0.8694
vn -0.4285 -0.3113 -0.8482
vn -0.4911 -0.3568 -0.7947
vn -0.4713 -0.4431 -0.7626
vn -0.5267 -0.4833 -0.6993
vn -0.5020 -0.5596 -0.6594
vn -0.5468 -0.5922 -0.5919
vn -0.5199 -0.6550 -0.5483
vn -0.2399 -0.0829 -0.9672
vn -0.2339 -0.1699 -0.9573
vn -0.2955 -0.2147 -0.9309
vn -0.2824 -0.3045 -0.9097
vn -0.3472 -0.3515 -0.8694
vn -0.3273 -0.4378 -0.8374
vn -0.3900 -0.4833 -0.7838
vn -0.3653 -0.5596 -0.7439
vn -0.4206 -0.5999 -0.6806
vn -0.3939 -0.6623 -0.6373
vn -0.4389 -0.6951 -0.5694
vn -0.4127 -0.7428 -0.5271
vn -0.1045 -0.0759 -0.9916
vn -0.0985 -0.1630 -0.9817
vn -0.1530 -0.2026 -0.9672
vn -0.1400 -0.2920 -0.9461
vn -0.2020 -0.3370 -0.9196
vn -0.1822 -0.4230 -0.8876
vn -0.2472 -0.4702 -0.8472
vn -0.2224 -0.5468 -0.8072
vn -0.2849 -0.5922 -0.7537
vn -0.2579 -0.6550 -0.7102
vn -0.3130 -0.6951 -0.6472
vn -0.2869 -0.7428 -0.6049
vn -0.3318 -0.7756 -0.5369
vn -0.3086 -0.8096 -0.4994
vn 0.7255 0.4735 -0.4994
vn 0.7705 0.3584 -0.5271
vn 0.8056 0.2244 -0.5483
vn 0.8250 0.0765 -0.5599
vn 0.8250 -0.0765 -0.5599
vn 0.8056 -0.2244 -0.5483
vn 0.7705 -0.3584 -0.5271
vn 0.7244 0.4324 -0.5369
vn 0.6687 0.4323 -0.6049
vn 0.7636 0.3044 -0.5694
vn 0.7080 0.3043 -0.6373
vn 0.6618 0.3784 -0.6472
vn 0.5937 0.3783 -0.7102
vn 0.7904 0.1577 -0.5919
vn 0.7351 0.1577 -0.6594
vn 0.6929 0.2381 -0.6806
vn 0.6245 0.2381 -0.7439
vn 0.5786 0.3116 -0.7537
vn 0.5013 0.3117 -0.8072
vn 0.8000 -0.0000 -0.6000
vn 0.7448 0.0000 -0.6673
vn 0.7101 0.0814 -0.6993
vn 0.6417 0.0814 -0.7626
vn 0.5996 0.1618 -0.7838
vn 0.5222 0.1618 -0.8374
vn 0.4764 0.2351 -0.8472
vn 0.3960 0.2352 -0.8876
vn 0.7904 -0.1577 -0.5919
vn 0.7351 -0.1577 -0.6594
vn 0.7101 -0.0814 -0.6993
vn 0.6417 -0.0814 -0.7626
vn 0.6071 -0.0000 -0.7947
vn 0.5297 -0.0000 -0.8482
vn 0.4875 0.0803 -0.8694
vn 0.4074 0.0804 -0.9097
vn 0.3615 0.1539 -0.9196
vn 0.2849 0.1540 -0.9461
vn 0.7636 -0.3044 -0.5694
vn 0.7080 -0.3043 -0.6373
vn 0.6929 -0.2381 -0.6806
vn 0.6245 -0.2381 -0.7439
vn 0.5996 -0.1618 -0.7838
vn 0.5222 -0.1618 -0.8374
vn 0.4875 -0.0803 -0.8694
vn 0.4074 -0.0804 -0.9097
vn 0.3652 -0.0000 -0.9309
vn 0.2891 -0.0000 -0.9573
vn 0.2428 0.0740 -0.9672
vn 0.1755 0.0740 -0.9817
vn 0.7244 -0.4324 -0.5369
vn 0.6687 -0.4323 -0.6049
vn 0.6618 -0.3784 -0.6472
vn 0.5937 -0.3783 -0.7102
vn 0.5786 -0.3116 -0.7537
vn 0.5013 -0.3117 -0.8072
vn 0.4764 -0.2351 -0.8472
vn 0.3960 -0.2352 -0.8876
vn 0.3615 -0.1539 -0.9196
vn 0.2849 -0.1540 -0.9461
vn 0.2428 -0.0740 -0.9672
vn 0.1755 -0.0740 -0.9817
vn 0.1292 0.0000 -0.9916
vn 0.0738 0.0000 -0.9973
vn -0.2262 -0.8363 -0.4994
vn -0.2045 -0.7696 -0.6049
vn -0.1763 -0.6815 -0.7102
vn -0.1415 -0.5731 -0.8072
vn -0.1013 -0.4493 -0.8876
vn -0.0584 -0.3185 -0.9461
vn -0.0161 -0.1897 -0.9817
vn -0.1874 -0.8225 -0.5369
vn -0.1027 -0.8436 -0.5271
vn -0.1553 -0.7464 -0.6472
vn -0.0707 -0.7674 -0.6373
vn -0.0535 -0.8203 -0.5694
vn 0.0356 -0.8355 -0.5483
vn -0.1176 -0.6466 -0.7537
vn -0.0334 -0.6675 -0.7439
vn -0.0123 -0.7326 -0.6806
vn 0.0772 -0.7478 -0.6594
vn 0.0942 -0.8005 -0.5919
vn 0.1822 -0.8083 -0.5599
vn -0.0764 -0.5257 -0.8472
vn 0.0075 -0.5466 -0.8374
vn 0.0314 -0.6202 -0.7838
vn 0.1209 -0.6355 -0.7626
vn 0.1420 -0.7005 -0.6993
vn 0.2302 -0.7084 -0.6673
vn 0.2472 -0.7608 -0.6000
vn 0.3277 -0.7610 -0.5599
vn -0.0347 -0.3913 -0.9196
vn 0.0495 -0.4123 -0.9097
vn 0.0742 -0.4885 -0.8694
vn 0.1637 -0.5037 -0.8482
vn 0.1876 -0.5773 -0.7947
vn 0.2757 -0.5852 -0.7626
vn 0.2969 -0.6502 -0.6993
vn 0.3771 -0.6504 -0.6594
vn 0.3943 -0.7030 -0.5919
vn 0.4623 -0.6968 -0.5483
vn 0.0047 -0.2538 -0.9672
vn 0.0893 -0.2749 -0.9573
vn 0.1129 -0.3473 -0.9309
vn 0.2023 -0.3626 -0.9097
vn 0.2271 -0.4388 -0.8694
vn 0.3152 -0.4466 -0.8374
vn 0.3391 -0.5202 -0.7838
vn 0.4194 -0.5203 -0.7439
vn 0.4406 -0.5854 -0.6806
vn 0.5082 -0.5793 -0.6373
vn 0.5255 -0.6322 -0.5694
vn 0.5789 -0.6221 -0.5271
vn 0.0399 -0.1228 -0.9916
vn 0.1246 -0.1440 -0.9817
vn 0.1454 -0.2081 -0.9672
vn 0.2345 -0.2234 -0.9461
vn 0.2581 -0.2962 -0.9196
vn 0.3460 -0.3040 -0.8876
vn 0.3708 -0.3804 -0.8472
vn 0.4513 -0.3805 -0.8072
vn 0.4752 -0.4539 -0.7537
vn 0.5433 -0.4477 -0.7102
vn 0.5644 -0.5125 -0.6472
vn 0.6178 -0.5024 -0.6049
vn 0.6351 -0.5553 -0.5369
vn 0.6746 -0.5437 -0.4994
usemtl isolator
s off
f 74//23 93//23 92//23
f 75//24 99//24 113//24
f 74//25 92//25 127//25
f 74//26 127//26 141//26
f 74//27 141//27 114//27
f 75//28 113//28 162//28
f 76//29 106//29 176//29
f 77//30 134//30 190//30
f 78//31 148//31 204//31
f 79//32 155//32 218//32
f 75//33 162//33 177//33
f 76//34 176//34 191//34
f 77//35 190//35 205//35
f 78//36 204//36 219//36
f 79//37 218//37 163//37
f 80//38 231//38 266//38
f 81//39 238//39 280//39
f 82//40 245//40 287//40
f 83//41 252//41 294//41
f 84//42 259//42 267//42
f 273//43 288//43 85//43
f 272//44 295//44 273//44
f 271//45 296//45 272//45
f 270//46 298//46 271//46
f 269//47 301//47 270//47
f 268//48 305//48 269//48
f 267//49 310//49 268//49
f 273//50 295//50 288//50
f 295//51 289//51 288//51
f 272//52 296//52 295//52
f 296//53 297//53 295//53
f 295//54 297//54 289//54
f 297//55 290//55 289//55
f 271//56 298//56 296//56
f 298//57 299//57 296//57
f 296//58 299//58 297//58
f 299//59 300//59 297//59
f 297//60 300//60 290//60
f 300//61 291//61 290//61
f 270//62 301//62 298//62
f 301//63 302//63 298//63
f 298//64 302//64 299//64
f 302//65 303//65 299//65
f 299//66 303//66 300//66
f 303//67 304//67 300//67
f 300//68 304//68 291//68
f 304//69 292//69 291//69
f 269//70 305//70 301//70
f 305//71 306//71 301//71
f 301//72 306//72 302//72
f 306//73 307//73 302//73
f 302//74 307//74 303//74
f 307//75 308//75 303//75
f 303//76 308//76 304//76
f 308//77 309//77 304//77
f 304//78 309//78 292//78
f 309//79 293//79 292//79
f 268//80 310//80 305//80
f 310//81 311//81 305//81
f 305//82 311//82 306//82
f 311//83 312//83 306//83
f 306//84 312//84 307//84
f 312//85 313//85 307//85
f 307//86 313//86 308//86
f 313//87 314//87 308//87
f 308//88 314//88 309//88
f 314//89 315//89 309//89
f 309//90 315//90 293//90
f 315//91 294//91 293//91
f 267//92 259//92 310//92
f 259//93 258//93 310//93
f 310//94 258//94 311//94
f 258//95 257//95 311//95
f 311//96 257//96 312//96
f 257//97 256//97 312//97
f 312//98 256//98 313//98
f 256//99 255//99 313//99
f 313//100 255//100 314//100
f 255//101 254//101 314//101
f 314//102 254//102 315//102
f 254//103 253//103 315//103
f 315//104 253//104 294//104
f 253//105 83//105 294//105
f 288//106 281//106 85//106
f 289//107 316//107 288//107
f 290//108 317//108 289//108
f 291//109 319//109 290//109
f 292//110 322//110 291//110
f 293//111 326//111 292//111
f 294//112 331//112 293//112
f 288//113 316//113 281//113
f 316//114 282//114 281//114
f 289//115 317//115 316//115
f 317//116 318//116 316//116
f 316//117 318//117 282//117
f 318//118 283//118 282//118
f 290//119 319//119 317//119
f 319//120 320//120 317//120
f 317//121 320//121 318//121
f 320//122 321//122 318//122
f 318//123 321//123 283//123
f 321//124 284//124 283//124
f 291//125 322//125 319//125
f 322//126 323//126 319//126
f 319//127 323//127 320//127
f 323//128 324//128 320//128
f 320//129 324//129 321//129
f 324//130 325//130 321//130
f 321//131 325//131 284//131
f 325//132 285//132 284//132
f 292//133 326//133 322//133
f 326//134 327//134 322//134
f 322//135 327//135 323//135
f 327//136 328//136 323//136
f 323//137 328//137 324//137
f 328//138 329//138 324//138
f 324//139 329//139 325//139
f 329//140 330//140 325//140
f 325//141 330//141 285//141
f 330//142 286//142 285//142
f 293//143 331//143 326//143
f 331//144 332//144 326//144
f 326//145 332//145 327//145
f 332//146 333//146 327//146
f 327//147 333//147 328//147
f 333//148 334//148 328//148
f 328//149 334//149 329//149
f 334//150 335//150 329//150
f 329//151 335//151 330//151
f 335//152 336//152 330//152
f 330//153 336//153 286//153
f 336//154 287//154 286//154
f 294//155 252//155 331//155
f 252//156 251//156 331//156
f 331//157 251//157 332//157
f 251//158 250//158 332//158
f 332//159 250//159 333//159
f 250//160 249//160 333//160
f 333//161 249//161 334//161
f 249//162 248//162 334//162
f 334//163 248//163 335//163
f 248//164 247//164 335//164
f 335//165 247//165 336//165
f 247//166 246//166 336//166
f 336//167 246//167 287//167
f 246//168 82//168 287//168
f 281//169 274//169 85//169
f 282//170 337//170 281//170
f 283//171 338//171 282//171
f 284//172 340//172 283//172
f 285//173 343//173 284//173
f 286//174 347//174 285//174
f 287//175 352//175 286//175
f 281//176 337//176 274//176
f 337//177 275//177 274//177
f 282//178 338//178 337//178
f 338//179 339//179 337//179
f 337//180 339//180 275//180
f 339//181 276//181 275//181
f 283//182 340//182 338//182
f 340//183 341//183 338//183
f 338//184 341//184 339//184
f 341//185 342//185 339//185
f 339//186 342//186 276//186
f 342//187 277//187 276//187
f 284//188 343//188 340//188
f 343//189 344//189 340//189
f 340//190 344//190 341//190
f 344//191 345//191 341//191
f 341//192 345//192 342//192
f 345//193 346//193 342//193
f 342//194 346//194 277//194
f 346//195 278//195 277//195
f 285//196 347//196 343//196
f 347//197 348//197 343//197
f 343//198 348//198 344//198
f 348//199 349//199 344//199
f 344//200 349//200 345//200
f 349//201 350//201 345//201
f 345//202 350//202 346//202
f 350//203 351//203 346//203
f 346//204 351//204 278//204
f 351//205 279//205 278//205
f 286//206 352//206 347//206
f 352//207 353//207 347//207
f 347//208 353//208 348//208
f 353//209 354//209 348//209
f 348//210 354//210 349//210
f 354//211 355//211 349//211
f 349//212 355//212 350//212
f 355//213 356//213 350//213
f 350//214 356//214 351//214
f 356//215 357//215 351//215
f 351//216 357//216 279//216
f 357//217 280//217 279//217
f 287//218 245//218 352//218
f 245//219 244//219 352//219
f 352//220 244//220 353//220
f 244//221 243//221 353//221
f 353//222 243//222 354//222
f 243//223 242//223 354//223
f 354//224 242//224 355//224
f 242//225 241//225 355//225
f 355//226 241//226 356//226
f 241//227 240//227 356//227
f 356//228 240//228 357//228
f 240//229 239//229 357//229
f 357//230 239//230 280//230
f 239//231 81//231 280//231
f 274//232 260//232 85//232
f 275//233 358//233 274//233
f 276//234 359//234 275//234
f 277//235 361//235 276//235
f 278//236 364//236 277//236
f 279//237 368//237 278//237
f 280//238 373//238 279//238
f 274//239 358//239 260//239
f 358//240 261//240 260//240
f 275//241 359//241 358//241
f 359//242 360//242 358//242
f 358//243 360//243 261//243
f 360//244 262//244 261//244
f 276//245 361//245 359//245
f 361//246 362//246 359//246
f 359//247 362//247 360//247
f 362//248 363//248 360//248
f 360//249 363//249 262//249
f 363//250 263//250 262//250
f 277//251 364//251 361//251
f 364//252 365//252 361//252
f 361//253 365//253 362//253
f 365//254 366//254 362//254
f 362//255 366//255 363//255
f 366//256 367//256 363//256
f 363//257 367//257 263//257
f 367//258 264//258 263//258
f 278//259 368//259 364//259
f 368//260 369//260 364//260
f 364//261 369//261 365//261
f 369//262 370//262 365//262
f 365//263 370//263 366//263
f 370//264 371//264 366//264
f 366//265 371//265 367//265
f 371//266 372//266 367//266
f 367//267 372//267 264//267
f 372//268 265//268 264//268
f 279//269 373//269 368//269
f 373//270 374//270 368//270
f 368//271 374//271 369//271
f 374//272 375//272 369//272
f 369//273 375//273 370//273
f 375//274 376//274 370//274
f 370//275 376//275 371//275
f 376//276 377//276 371//276
f 371//277 377//277 372//277
f 377//278 378//278 372//278
f 372//279 378//279 265//279
f 378//280 266//280 265//280
f 280//281 238//281 373//281
f 238//282 237//282 373//282
f 373//283 237//283 374//283
f 237//284 236//284 374//284
f 374//285 236//285 375//285
f 236//286 235//286 375//286
f 375//287 235//287 376//287
f 235//288 234//288 376//288
f 376//289 234//289 377//289
f 234//290 233//290 377//290
f 377//291 233//291 378//291
f 233//292 232//292 378//292
f 378//293 232//293 266//293
f 232//294 80//294 266//294
f 260//295 273//295 85//295
f 261//296 379//296 260//296
f 262//297 380//297 261//297
f 263//298 382//298 262//298
f 264//299 385//299 263//299
f 265//300 389//300 264//300
f 266//301 394//301 265//301
f 260//302 379//302 273//302
f 379//303 272//303 273//303
f 261//304 380//304 379//304
f 380//305 381//305 379//305
f 379//306 381//306 272//306
f 381//307 271//307 272//307
f 262//308 382//308 380//308
f 382//309 383//309 380//309
f 380//310 383//310 381//310
f 383//311 384//311 381//311
f 381//312 384//312 271//312
f 384//313 270//313 271//313
f 263//314 385//314 382//314
f 385//315 386//315 382//315
f 382//316 386//316 383//316
f 386//317 387//317 383//317
f 383//318 387//318 384//318
f 387//319 388//319 384//319
f 384//320 388//320 270//320
f 388//321 269//321 270//321
f 264//322 389//322 385//322
f 389//323 390//323 385//323
f 385//324 390//324 386//324
f 390//325 391//325 386//325
f 386//326 391//326 387//326
f 391//327 392//327 387//327
f 387//328 392//328 388//328
f 392//329 393//329 388//329
f 388//330 393//330 269//330
f 393//331 268//331 269//331
f 265//332 394//332 389//332
f 394//333 395//333 389//333
f 389//334 395//334 390//334
f 395//335 396//335 390//335
f 390//336 396//336 391//336
f 396//337 397//337 391//337
f 391//338 397//338 392//338
f 397//339 398//339 392//339
f 392//340 398//340 393//340
f 398//341 399//341 393//341
f 393//342 399//342 268//342
f 399//343 267//343 268//343
f 266//344 231//344 394//344
f 231//345 230//345 394//345
f 394//346 230//346 395//346
f 230//347 229//347 395//347
f 395//348 229//348 396//348
f 229//349 228//349 396//349
f 396//350 228//350 397//350
f 228//351 227//351 397//351
f 397//352 227//352 398//352
f 227//353 226//353 398//353
f 398//354 226//354 399//354
f 226//355 225//355 399//355
f 399//356 225//356 267//356
f 225//357 84//357 267//357
f 169//358 259//358 84//358
f 168//359 400//359 169//359
f 167//360 401//360 168//360
f 166//361 403//361 167//361
f 165//362 406//362 166//362
f 164//363 410//363 165//363
f 163//364 415//364 164//364
f 169//365 400//365 259//365
f 400//366 258//366 259//366
f 168//367 401//367 400//367
f 401//368 402//368 400//368
f 400//369 402//369 258//369
f 402//370 257//370 258//370
f 167//371 403//371 401//371
f 403//372 404//372 401//372
f 401//373 404//373 402//373
f 404//374 405//374 402//374
f 402//375 405//375 257//375
f 405//376 256//376 257//376
f 166//377 406//377 403//377
f 406//378 407//378 403//378
f 403//379 407//379 404//379
f 407//380 408//380 404//380
f 404//381 408//381 405//381
f 408//382 409//382 405//382
f 405//383 409//383 256//383
f 409//384 255//384 256//384
f 165//385 410//385 406//385
f 410//386 411//386 406//386
f 406//387 411//387 407//387
f 411//388 412//388 407//388
f 407//389 412//389 408//389
f 412//390 413//390 408//390
f 408//391 413//391 409//391
f 413//392 414//392 409//392
f 409//393 414//393 255//393
f 414//394 254//394 255//394
f 164//395 415//395 410//395
f 415//396 416//396 410//396
f 410//397 416//397 411//397
f 416//398 417//398 411//398
f 411//399 417//399 412//399
f 417//400 418//400 412//400
f 412//401 418//401 413//401
f 418//402 419//402 413//402
f 413//403 419//403 414//403
f 419//404 420//404 414//404
f 414//405 420//405 254//405
f 420//406 253//406 254//406
f 163//407 218//407 415//407
f 218//408 217//408 415//408
f 415//409 217//409 416//409
f 217//410 216//410 416//410
f 416//411 216//411 417//411
f 216//412 215//412 417//412
f 417//413 215//413 418//413
f 215//414 214//414 418//414
f 418//415 214//415 419//415
f 214//416 213//416 419//416
f 419//417 213//417 420//417
f 213//418 212//418 420//418
f 420//419 212//419 253//419
f 212//420 83//420 253//420
f 224//421 252//421 83//421
f 223//422 421//422 224//422
f 222//423 422//423 223//423
f 220//424 430//424 221//424
f 219//425 435//425 220//425
f 224//426 421//426 252//426
f 421//427 251//427 252//427
f 223//428 422//428 421//428
f 422//429 423//429 421//429
f 421//430 423//430 251//430
f 423//431 250//431 251//431
f 222//432 424//432 422//432
f 424//433 425//433 422//433
f 422//434 425//434 423//434
f 425//435 426//435 423//435
f 423//436 426//436 250//436
f 426//437 249//437 250//437
f 424//438 427//438 425//438
f 427//439 428//439 425//439
f 425//440 428//440 426//440
f 428//441 429//441 426//441
f 426//442 429//442 249//442
f 429//443 248//443 249//443
f 431//444 432//444 427//444
f 427//445 432//445 428//445
f 432//446 433//446 428//446
f 428//447 433//447 429//447
f 433//448 434//448 429//448
f 429//449 434//449 248//449
f 434//450 247//450 248//450
f 220//451 435//451 430//451
f 435//452 436//452 430//452
f 430//453 436//453 431//453
f 436//454 437//454 431//454
f 431//455 437//455 432//455
f 437//456 438//456 432//456
f 432//457 438//457 433//457
f 438//458 439//458 433//458
f 433//459 439//459 434//459
f 439//460 440//460 434//460
f 434//461 440//461 247//461
f 440//462 246//462 247//462
f 219//463 204//463 435//463
f 204//464 203//464 435//464
f 435//465 203//465 436//465
f 203//466 202//466 436//466
f 436//467 202//467 437//467
f 202//468 201//468 437//468
f 437//469 201//469 438//469
f 201//470 200//470 438//470
f 438//471 200//471 439//471
f 200//472 199//472 439//472
f 439//473 199//473 440//473
f 199//474 198//474 440//474
f 440//475 198//475 246//475
f 198//476 82//476 246//476
f 211//477 245//477 82//477
f 210//478 441//478 211//478
f 209//479 442//479 210//479
f 208//480 444//480 209//480
f 207//481 447//481 208//481
f 206//482 451//482 207//482
f 205//483 456//483 206//483
f 211//484 441//484 245//484
f 441//485 244//485 245//485
f 210//486 442//486 441//486
f 442//487 443//487 441//487
f 441//488 443//488 244//488
f 443//489 243//489 244//489
f 209//490 444//490 442//490
f 444//491 445//491 442//491
f 442//492 445//492 443//492
f 445//493 446//493 443//493
f 443//494 446//494 243//494
f 446//495 242//495 243//495
f 208//496 447//496 444//496
f 447//497 448//497 444//497
f 444//498 448//498 445//498
f 448//499 449//499 445//499
f 445//500 449//500 446//500
f 449//501 450//501 446//501
f 446//502 450//502 242//502
f 450//503 241//503 242//503
f 207//504 451//504 447//504
f 451//505 452//505 447//505
f 447//506 452//506 448//506
f 452//507 453//507 448//507
f 448//508 453//508 449//508
f 453//509 454//509 449//509
f 449//510 454//510 450//510
f 454//511 455//511 450//511
f 450//512 455//512 241//512
f 455//513 240//513 241//513
f 206//514 456//514 451//514
f 456//515 457//515 451//515
f 451//516 457//516 452//516
f 457//517 458//517 452//517
f 452//518 458//518 453//518
f 458//519 459//519 453//519
f 453//520 459//520 454//520
f 459//521 460//521 454//521
f 454//522 460//522 455//522
f 460//523 461//523 455//523
f 455//524 461//524 240//524
f 461//525 239//525 240//525
f 205//526 190//526 456//526
f 190//527 189//527 456//527
f 456//528 189//528 457//528
f 189//529 188//529 457//529
f 457//530 188//530 458//530
f 188//531 187//531 458//531
f 458//532 187//532 459//532
f 187//533 186//533 459//533
f 459//534 186//534 460//534
f 186//535 185//535 460//535
f 460//536 185//536 461//536
f 185//537 184//537 461//537
f 461//538 184//538 239//538
f 184//539 81//539 239//539
f 197//540 238//540 81//540
f 196//541 462//541 197//541
f 195//542 463//542 196//542
f 194//543 465//543 195//543
f 193//544 468//544 194//544
f 192//545 472//545 193//545
f 191//546 477//546 192//546
f 197//547 462//547 238//547
f 462//548 237//548 238//548
f 196//549 463//549 462//549
f 463//550 464//550 462//550
f 462//551 464//551 237//551
f 464//552 236//552 237//552
f 195//553 465//553 463//553
f 465//554 466//554 463//554
f 463//555 466//555 464//555
f 466//556 467//556 464//556
f 464//557 467//557 236//557
f 467//558 235//558 236//558
f 194//559 468//559 465//559
f 468//560 469//560 465//560
f 465//561 469//561 466//561
f 469//562 470//562 466//562
f 466//563 470//563 467//563
f 470//564 471//564 467//564
f 467//565 471//565 235//565
f 471//566 234//566 235//566
f 193//567 472//567 468//567
f 472//568 473//568 468//568
f 468//569 473//569 469//569
f 473//570 474//570 469//570
f 469//571 474//571 470//571
f 474//572 475//572 470//572
f 470//573 475//573 471//573
f 475//574 476//574 471//574
f 471//575 476//575 234//575
f 476//576 233//576 234//576
f 192//577 477//577 472//577
f 477//578 478//578 472//578
f 472//579 478//579 473//579
f 478//580 479//580 473//580
f 473//581 479//581 474//581
f 479//582 480//582 474//582
f 474//583 480//583 475//583
f 480//584 481//584 475//584
f 475//585 481//585 476//585
f 481//586 482//586 476//586
f 476//587 482//587 233//587
f 482//588 232//588 233//588
f 191//589 176//589 477//589
f 176//590 175//590 477//590
f 477//591 175//591 478//591
f 175//592 174//592 478//592
f 478//593 174//593 479//593
f 174//594 173//594 479//594
f 479//595 173//595 480//595
f 173//596 172//596 480//596
f 480//597 172//597 481//597
f 172//598 171//598 481//598
f 481//599 171//599 482//599
f 171//600 170//600 482//600
f 482//601 170//601 232//601
f 170//602 80//602 232//602
f 183//603 231//603 80//603
f 182//604 483//604 183//604
f 181//605 484//605 182//605
f 180//606 486//606 181//606
f 179//607 489//607 180//607
f 178//608 493//608 179//608
f 177//609 498//609 178//609
f 183//610 483//610 231//610
f 483//611 230//611 231//611
f 182//612 484//612 483//612
f 484//613 485//613 483//613
f 483//614 485//614 230//614
f 485//615 229//615 230//615
f 181//616 486//616 484//616
f 486//617 487//617 484//617
f 484//618 487//618 485//618
f 487//619 488//619 485//619
f 485//620 488//620 229//620
f 488//621 228//621 229//621
f 180//622 489//622 486//622
f 489//623 490//623 486//623
f 486//624 490//624 487//624
f 490//625 491//625 487//625
f 487//626 491//626 488//626
f 491//627 492//627 488//627
f 488//628 492//628 228//628
f 492//629 227//629 228//629
f 179//630 493//630 489//630
f 493//631 494//631 489//631
f 489//632 494//632 490//632
f 494//633 495//633 490//633
f 490//634 495//634 491//634
f 495//635 496//635 491//635
f 491//636 496//636 492//636
f 496//637 497//637 492//637
f 492//638 497//638 227//638
f 497//639 226//639 227//639
f 178//640 498//640 493//640
f 498//641 499//641 493//641
f 493//642 499//642 494//642
f 499//643 500//643 494//643
f 494//644 500//644 495//644
f 500//645 501//645 495//645
f 495//646 501//646 496//646
f 501//647 502//647 496//647
f 496//648 502//648 497//648
f 502//649 503//649 497//649
f 497//650 503//650 226//650
f 503//651 225//651 226//651
f 177//652 162//652 498//652
f 162//653 161//653 498//653
f 498//654 161//654 499//654
f 161//655 160//655 499//655
f 499//656 160//656 500//656
f 160//657 159//657 500//657
f 500//658 159//658 501//658
f 159//659 158//659 501//659
f 501//660 158//660 502//660
f 158//661 157//661 502//661
f 502//662 157//662 503//662
f 157//663 156//663 503//663
f 503//664 156//664 225//664
f 156//665 84//665 225//665
f 212//666 224//666 83//666
f 213//667 504//667 212//667
f 214//668 505//668 213//668
f 215//669 507//669 214//669
f 216//670 510//670 215//670
f 217//671 514//671 216//671
f 218//672 519//672 217//672
f 212//673 504//673 224//673
f 504//674 223//674 224//674
f 213//675 505//675 504//675
f 505//676 506//676 504//676
f 504//677 506//677 223//677
f 506//678 222//678 223//678
f 214//679 507//679 505//679
f 507//680 508//680 505//680
f 505//681 508//681 506//681
f 508//682 509//682 506//682
f 506//683 509//683 222//683
f 215//684 510//684 507//684
f 510//685 511//685 507//685
f 507//686 511//686 508//686
f 511//687 512//687 508//687
f 508//688 512//688 509//688
f 512//689 513//689 509//689
f 216//690 514//690 510//690
f 514//691 515//691 510//691
f 510//692 515//692 511//692
f 515//693 516//693 511//693
f 511//694 516//694 512//694
f 516//695 517//695 512//695
f 512//696 517//696 513//696
f 517//697 518//697 513//697
f 513//698 518//698 221//698
f 518//699 220//699 221//699
f 217//700 519//700 514//700
f 519//701 520//701 514//701
f 514//702 520//702 515//702
f 520//703 521//703 515//703
f 515//704 521//704 516//704
f 521//705 522//705 516//705
f 516//706 522//706 517//706
f 522//707 523//707 517//707
f 517//708 523//708 518//708
f 523//709 524//709 518//709
f 518//710 524//710 220//710
f 524//711 219//711 220//711
f 218//712 155//712 519//712
f 155//713 154//713 519//713
f 519//714 154//714 520//714
f 154//715 153//715 520//715
f 520//716 153//716 521//716
f 153//717 152//717 521//717
f 521//718 152//718 522//718
f 152//719 151//719 522//719
f 522//720 151//720 523//720
f 151//721 150//721 523//721
f 523//722 150//722 524//722
f 150//723 149//723 524//723
f 524//724 149//724 219//724
f 149//725 78//725 219//725
f 198//726 211//726 82//726
f 199//727 525//727 198//727
f 200//728 526//728 199//728
f 201//729 528//729 200//729
f 202//730 531//730 201//730
f 203//731 535//731 202//731
f 204//732 540//732 203//732
f 198//733 525//733 211//733
f 525//734 210//734 211//734
f 199//735 526//735 525//735
f 526//736 527//736 525//736
f 525//737 527//737 210//737
f 527//738 209//738 210//738
f 200//739 528//739 526//739
f 528//740 529//740 526//740
f 526//741 529//741 527//741
f 529//742 530//742 527//742
f 527//743 530//743 209//743
f 530//744 208//744 209//744
f 201//745 531//745 528//745
f 531//746 532//746 528//746
f 528//747 532//747 529//747
f 532//748 533//748 529//748
f 529//749 533//749 530//749
f 533//750 534//750 530//750
f 530//751 534//751 208//751
f 534//752 207//752 208//752
f 202//753 535//753 531//753
f 535//754 536//754 531//754
f 531//755 536//755 532//755
f 536//756 537//756 532//756
f 532//757 537//757 533//757
f 537//758 538//758 533//758
f 533//759 538//759 534//759
f 538//760 539//760 534//760
f 534//761 539//761 207//761
f 539//762 206//762 207//762
f 203//763 540//763 535//763
f 540//764 541//764 535//764
f 535//765 541//765 536//765
f 541//766 542//766 536//766
f 536//767 542//767 537//767
f 542//768 543//768 537//768
f 537//769 543//769 538//769
f 543//770 544//770 538//770
f 538//771 544//771 539//771
f 544//772 545//772 539//772
f 539//773 545//773 206//773
f 545//774 205//774 206//774
f 204//775 148//775 540//775
f 148//776 147//776 540//776
f 540//777 147//777 541//777
f 147//778 146//778 541//778
f 541//779 146//779 542//779
f 146//780 145//780 542//780
f 542//781 145//781 543//781
f 145//782 144//782 543//782
f 543//783 144//783 544//783
f 144//784 143//784 544//784
f 544//785 143//785 545//785
f 143//786 142//786 545//786
f 545//787 142//787 205//787
f 142//788 77//788 205//788
f 184//789 197//789 81//789
f 185//790 546//790 184//790
f 186//791 547//791 185//791
f 187//792 549//792 186//792
f 188//793 552//793 187//793
f 189//794 556//794 188//794
f 190//795 561//795 189//795
f 184//796 546//796 197//796
f 546//797 196//797 197//797
f 185//798 547//798 546//798
f 547//799 548//799 546//799
f 546//800 548//800 196//800
f 548//801 195//801 196//801
f 186//802 549//802 547//802
f 549//803 550//803 547//803
f 547//804 550//804 548//804
f 550//805 551//805 548//805
f 548//806 551//806 195//806
f 551//807 194//807 195//807
f 187//808 552//808 549//808
f 552//809 553//809 549//809
f 549//810 553//810 550//810
f 553//811 554//811 550//811
f 550//812 554//812 551//812
f 554//813 555//813 551//813
f 551//814 555//814 194//814
f 555//815 193//815 194//815
f 188//816 556//816 552//816
f 556//817 557//817 552//817
f 552//818 557//818 553//818
f 557//819 558//819 553//819
f 553//820 558//820 554//820
f 558//821 559//821 554//821
f 554//822 559//822 555//822
f 559//823 560//823 555//823
f 555//824 560//824 193//824
f 560//825 192//825 193//825
f 189//826 561//826 556//826
f 561//827 562//827 556//827
f 556//828 562//828 557//828
f 562//829 563//829 557//829
f 557//830 563//830 558//830
f 563//831 564//831 558//831
f 558//832 564//832 559//832
f 564//833 565//833 559//833
f 559//834 565//834 560//834
f 565//835 566//835 560//835
f 560//836 566//836 192//836
f 566//837 191//837 192//837
f 190//838 134//838 561//838
f 134//839 133//839 561//839
f 561//840 133//840 562//840
f 133//841 132//841 562//841
f 562//842 132//842 563//842
f 132//843 131//843 563//843
f 563//844 131//844 564//844
f 131//845 130//845 564//845
f 564//846 130//846 565//846
f 130//847 129//847 565//847
f 565//848 129//848 566//848
f 129//849 128//849 566//849
f 566//850 128//850 191//850
f 128//851 76//851 191//851
f 170//852 183//852 80//852
f 171//853 567//853 170//853
f 172//854 568//854 171//854
f 173//855 570//855 172//855
f 174//856 573//856 173//856
f 175//857 577//857 174//857
f 176//858 582//858 175//858
f 170//859 567//859 183//859
f 567//860 182//860 183//860
f 171//861 568//861 567//861
f 568//862 569//862 567//862
f 567//863 569//863 182//863
f 569//864 181//864 182//864
f 172//865 570//865 568//865
f 570//866 571//866 568//866
f 568//867 571//867 569//867
f 571//868 572//868 569//868
f 569//869 572//869 181//869
f 572//870 180//870 181//870
f 173//871 573//871 570//871
f 573//872 574//872 570//872
f 570//873 574//873 571//873
f 574//874 575//874 571//874
f 571//875 575//875 572//875
f 575//876 576//876 572//876
f 572//877 576//877 180//877
f 576//878 179//878 180//878
f 174//879 577//879 573//879
f 577//880 578//880 573//880
f 573//881 578//881 574//881
f 578//882 579//882 574//882
f 574//883 579//883 575//883
f 579//884 580//884 575//884
f 575//885 580//885 576//885
f 580//886 581//886 576//886
f 576//887 581//887 179//887
f 581//888 178//888 179//888
f 175//889 582//889 577//889
f 582//890 583//890 577//890
f 577//891 583//891 578//891
f 583//892 584//892 578//892
f 578//893 584//893 579//893
f 584//894 585//894 579//894
f 579//895 585//895 580//895
f 585//896 586//896 580//896
f 580//897 586//897 581//897
f 586//898 587//898 581//898
f 581//899 587//899 178//899
f 587//900 177//900 178//900
f 176//901 106//901 582//901
f 106//902 105//902 582//902
f 582//903 105//903 583//903
f 105//904 104//904 583//904
f 583//905 104//905 584//905
f 104//906 103//906 584//906
f 584//907 103//907 585//907
f 103//908 102//908 585//908
f 585//909 102//909 586//909
f 102//910 101//910 586//910
f 586//911 101//911 587//911
f 101//912 100//912 587//912
f 587//913 100//913 177//913
f 100//914 75//914 177//914
f 156//915 169//915 84//915
f 157//916 588//916 156//916
f 158//917 589//917 157//917
f 159//918 591//918 158//918
f 160//919 594//919 159//919
f 161//920 598//920 160//920
f 162//921 603//921 161//921
f 156//922 588//922 169//922
f 588//923 168//923 169//923
f 157//924 589//924 588//924
f 589//925 590//925 588//925
f 588//926 590//926 168//926
f 590//927 167//927 168//927
f 158//928 591//928 589//928
f 591//929 592//929 589//929
f 589//930 592//930 590//930
f 592//931 593//931 590//931
f 590//932 593//932 167//932
f 593//933 166//933 167//933
f 159//934 594//934 591//934
f 594//935 595//935 591//935
f 591//936 595//936 592//936
f 595//937 596//937 592//937
f 592//938 596//938 593//938
f 596//939 597//939 593//939
f 593//940 597//940 166//940
f 597//941 165//941 166//941
f 160//942 598//942 594//942
f 598//943 599//943 594//943
f 594//944 599//944 595//944
f 599//945 600//945 595//945
f 595//946 600//946 596//946
f 600//947 601//947 596//947
f 596//948 601//948 597//948
f 601//949 602//949 597//949
f 597//950 602//950 165//950
f 602//951 164//951 165//951
f 161//952 603//952 598//952
f 603//953 604//953 598//953
f 598//954 604//954 599//954
f 604//955 605//955 599//955
f 599//956 605//956 600//956
f 605//957 606//957 600//957
f 600//958 606//958 601//958
f 606//959 607//959 601//959
f 601//960 607//960 602//960
f 607//961 608//961 602//961
f 602//962 608//962 164//962
f 608//963 163//963 164//963
f 162//964 113//964 603//964
f 113//965 112//965 603//965
f 603//966 112//966 604//966
f 112//967 111//967 604//967
f 604//968 111//968 605//968
f 111//969 110//969 605//969
f 605//970 110//970 606//970
f 110//971 109//971 606//971
f 606//972 109//972 607//972
f 109//973 108//973 607//973
f 607//974 108//974 608//974
f 108//975 107//975 608//975
f 608//976 107//976 163//976
f 107//977 79//977 163//977
f 120//978 155//978 79//978
f 119//979 609//979 120//979
f 118//980 610//980 119//980
f 117//981 612//981 118//981
f 116//982 615//982 117//982
f 115//983 619//983 116//983
f 114//984 624//984 115//984
f 120//985 609//985 155//985
f 609//986 154//986 155//986
f 119//987 610//987 609//987
f 610//988 611//988 609//988
f 609//989 611//989 154//989
f 611//990 153//990 154//990
f 118//991 612//991 610//991
f 612//992 613//992 610//992
f 610//993 613//993 611//993
f 613//994 614//994 611//994
f 611//995 614//995 153//995
f 614//996 152//996 153//996
f 117//997 615//997 612//997
f 615//998 616//998 612//998
f 612//999 616//999 613//999
f 616//1000 617//1000 613//1000
f 613//1001 617//1001 614//1001
f 617//1002 618//1002 614//1002
f 614//1003 618//1003 152//1003
f 618//1004 151//1004 152//1004
f 116//1005 619//1005 615//1005
f 619//1006 620//1006 615//1006
f 615//1007 620//1007 616//1007
f 620//1008 621//1008 616//1008
f 616//1009 621//1009 617//1009
f 621//1010 622//1010 617//1010
f 617//1011 622//1011 618//1011
f 622//1012 623//1012 618//1012
f 618//1013 623//1013 151//1013
f 623//1014 150//1014 151//1014
f 115//1015 624//1015 619//1015
f 624//1016 625//1016 619//1016
f 619//1017 625//1017 620//1017
f 625//1018 626//1018 620//1018
f 620//1019 626//1019 621//1019
f 626//1020 627//1020 621//1020
f 621//1021 627//1021 622//1021
f 627//1022 628//1022 622//1022
f 622//1023 628//1023 623//1023
f 628//1024 629//1024 623//1024
f 623//1025 629//1025 150//1025
f 629//1026 149//1026 150//1026
f 114//1027 141//1027 624//1027
f 141//1028 140//1028 624//1028
f 624//1029 140//1029 625//1029
f 140//1030 139//1030 625//1030
f 625//1031 139//1031 626//1031
f 139//1032 138//1032 626//1032
f 626//1033 138//1033 627//1033
f 138//1034 137//1034 627//1034
f 627//1035 137//1035 628//1035
f 137//1036 136//1036 628//1036
f 628//1037 136//1037 629//1037
f 136//1038 135//1038 629//1038
f 629//1039 135//1039 149//1039
f 135//1040 78//1040 149//1040
f 135//1041 148//1041 78//1041
f 136//1042 630//1042 135//1042
f 137//1043 631//1043 136//1043
f 138//1044 633//1044 137//1044
f 139//1045 636//1045 138//1045
f 140//1046 640//1046 139//1046
f 141//1047 645//1047 140//1047
f 135//1048 630//1048 148//1048
f 630//1049 147//1049 148//1049
f 136//1050 631//1050 630//1050
f 631//1051 632//1051 630//1051
f 630//1052 632//1052 147//1052
f 632//1053 146//1053 147//1053
f 137//1054 633//1054 631//1054
f 633//1055 634//1055 631//1055
f 631//1056 634//1056 632//1056
f 634//1057 635//1057 632//1057
f 632//1058 635//1058 146//1058
f 635//1059 145//1059 146//1059
f 138//1060 636//1060 633//1060
f 636//1061 637//1061 633//1061
f 633//1062 637//1062 634//1062
f 637//1063 638//1063 634//1063
f 634//1064 638//1064 635//1064
f 638//1065 639//1065 635//1065
f 635//1066 639//1066 145//1066
f 639//1067 144//1067 145//1067
f 139//1068 640//1068 636//1068
f 640//1069 641//1069 636//1069
f 636//1070 641//1070 637//1070
f 641//1071 642//1071 637//1071
f 637//1072 642//1072 638//1072
f 642//1073 643//1073 638//1073
f 638//1074 643//1074 639//1074
f 643//1075 644//1075 639//1075
f 639//1076 644//1076 144//1076
f 644//1077 143//1077 144//1077
f 140//1078 645//1078 640//1078
f 645//1079 646//1079 640//1079
f 640//1080 646//1080 641//1080
f 646//1081 647//1081 641//1081
f 641//1082 647//1082 642//1082
f 647//1083 648//1083 642//1083
f 642//1084 648//1084 643//1084
f 648//1085 649//1085 643//1085
f 643//1086 649//1086 644//1086
f 649//1087 650//1087 644//1087
f 644//1088 650//1088 143//1088
f 650//1089 142//1089 143//1089
f 141//1090 127//1090 645//1090
f 127//1091 126//1091 645//1091
f 645//1092 126//1092 646//1092
f 126//1093 125//1093 646//1093
f 646//1094 125//1094 647//1094
f 125//1095 124//1095 647//1095
f 647//1096 124//1096 648//1096
f 124//1097 123//1097 648//1097
f 648//1098 123//1098 649//1098
f 123//1099 122//1099 649//1099
f 649//1100 122//1100 650//1100
f 122//1101 121//1101 650//1101
f 650//1102 121//1102 142//1102
f 121//1103 77//1103 142//1103
f 121//1104 134//1104 77//1104
f 122//1105 651//1105 121//1105
f 123//1106 652//1106 122//1106
f 124//1107 654//1107 123//1107
f 125//1108 657//1108 124//1108
f 126//1109 661//1109 125//1109
f 127//1110 666//1110 126//1110
f 121//1111 651//1111 134//1111
f 651//1112 133//1112 134//1112
f 122//1113 652//1113 651//1113
f 652//1114 653//1114 651//1114
f 651//1115 653//1115 133//1115
f 653//1116 132//1116 133//1116
f 123//1117 654//1117 652//1117
f 654//1118 655//1118 652//1118
f 652//1119 655//1119 653//1119
f 655//1120 656//1120 653//1120
f 653//1121 656//1121 132//1121
f 656//1122 131//1122 132//1122
f 124//1123 657//1123 654//1123
f 657//1124 658//1124 654//1124
f 654//1125 658//1125 655//1125
f 658//1126 659//1126 655//1126
f 655//1127 659//1127 656//1127
f 659//1128 660//1128 656//1128
f 656//1129 660//1129 131//1129
f 660//1130 130//1130 131//1130
f 125//1131 661//1131 657//1131
f 661//1132 662//1132 657//1132
f 657//1133 662//1133 658//1133
f 662//1134 663//1134 658//1134
f 658//1135 663//1135 659//1135
f 663//1136 664//1136 659//1136
f 659//1137 664//1137 660//1137
f 664//1138 665//1138 660//1138
f 660//1139 665//1139 130//1139
f 665//1140 129//1140 130//1140
f 126//1141 666//1141 661//1141
f 666//1142 667//1142 661//1142
f 661//1143 667//1143 662//1143
f 667//1144 668//1144 662//1144
f 662//1145 668//1145 663//1145
f 668//1146 669//1146 663//1146
f 663//1147 669//1147 664//1147
f 669//1148 670//1148 664//1148
f 664//1149 670//1149 665//1149
f 670//1150 671//1150 665//1150
f 665//1151 671//1151 129//1151
f 671//1152 128//1152 129//1152
f 127//1153 92//1153 666//1153
f 92//1154 91//1154 666//1154
f 666//1155 91//1155 667//1155
f 91//1156 90//1156 667//1156
f 667//1157 90//1157 668//1157
f 90//1158 89//1158 668//1158
f 668//1159 89//1159 669//1159
f 89//1160 88//1160 669//1160
f 669//1161 88//1161 670//1161
f 88//1162 87//1162 670//1162
f 670//1163 87//1163 671//1163
f 87//1164 86//1164 671//1164
f 671//1165 86//1165 128//1165
f 86//1166 76//1166 128//1166
f 107//1167 120//1167 79//1167
f 108//1168 672//1168 107//1168
f 109//1169 673//1169 108//1169
f 110//1170 675//1170 109//1170
f 111//1171 678//1171 110//1171
f 112//1172 682//1172 111//1172
f 113//1173 687//1173 112//1173
f 107//1174 672//1174 120//1174
f 672//1175 119//1175 120//1175
f 108//1176 673//1176 672//1176
f 673//1177 674//1177 672//1177
f 672//1178 674//1178 119//1178
f 674//1179 118//1179 119//1179
f 109//1180 675//1180 673//1180
f 675//1181 676//1181 673//1181
f 673//1182 676//1182 674//1182
f 676//1183 677//1183 674//1183
f 674//1184 677//1184 118//1184
f 677//1185 117//1185 118//1185
f 110//1186 678//1186 675//1186
f 678//1187 679//1187 675//1187
f 675//1188 679//1188 676//1188
f 679//1189 680//1189 676//1189
f 676//1190 680//1190 677//1190
f 680//1191 681//1191 677//1191
f 677//1192 681//1192 117//1192
f 681//1193 116//1193 117//1193
f 111//1194 682//1194 678//1194
f 682//1195 683//1195 678//1195
f 678//1196 683//1196 679//1196
f 683//1197 684//1197 679//1197
f 679//1198 684//1198 680//1198
f 684//1199 685//1199 680//1199
f 680//1200 685//1200 681//1200
f 685//1201 686//1201 681//1201
f 681//1202 686//1202 116//1202
f 686//1203 115//1203 116//1203
f 112//1204 687//1204 682//1204
f 687//1205 688//1205 682//1205
f 682//1206 688//1206 683//1206
f 688//1207 689//1207 683//1207
f 683//1208 689//1208 684//1208
f 689//1209 690//1209 684//1209
f 684//1210 690//1210 685//1210
f 690//1211 691//1211 685//1211
f 685//1212 691//1212 686//1212
f 691//1213 692//1213 686//1213
f 686//1214 692//1214 115//1214
f 692//1215 114//1215 115//1215
f 113//1216 99//1216 687//1216
f 99//1217 98//1217 687//1217
f 687//1218 98//1218 688//1218
f 98//1219 97//1219 688//1219
f 688//1220 97//1220 689//1220
f 97//1221 96//1221 689//1221
f 689//1222 96//1222 690//1222
f 96//1223 95//1223 690//1223
f 690//1224 95//1224 691//1224
f 95//1225 94//1225 691//1225
f 691//1226 94//1226 692//1226
f 94//1227 93//1227 692//1227
f 692//1228 93//1228 114//1228
f 93//1229 74//1229 114//1229
f 86//1230 106//1230 76//1230
f 87//1231 693//1231 86//1231
f 88//1232 694//1232 87//1232
f 89//1233 696//1233 88//1233
f 90//1234 699//1234 89//1234
f 91//1235 703//1235 90//1235
f 92//1236 708//1236 91//1236
f 86//1237 693//1237 106//1237
f 693//1238 105//1238 106//1238
f 87//1239 694//1239 693//1239
f 694//1240 695//1240 693//1240
f 693//1241 695//1241 105//1241
f 695//1242 104//1242 105//1242
f 88//1243 696//1243 694//1243
f 696//1244 697//1244 694//1244
f 694//1245 697//1245 695//1245
f 697//1246 698//1246 695//1246
f 695//1247 698//1247 104//1247
f 698//1248 103//1248 104//1248
f 89//1249 699//1249 696//1249
f 699//1250 700//1250 696//1250
f 696//1251 700//1251 697//1251
f 700//1252 701//1252 697//1252
f 697//1253 701//1253 698//1253
f 701//1254 702//1254 698//1254
f 698//1255 702//1255 103//1255
f 702//1256 102//1256 103//1256
f 90//1257 703//1257 699//1257
f 703//1258 704//1258 699//1258
f 699//1259 704//1259 700//1259
f 704//1260 705//1260 700//1260
f 700//1261 705//1261 701//1261
f 705//1262 706//1262 701//1262
f 701//1263 706//1263 702//1263
f 706//1264 707//1264 702//1264
f 702//1265 707//1265 102//1265
f 707//1266 101//1266 102//1266
f 91//1267 708//1267 703//1267
f 708//1268 709//1268 703//1268
f 703//1269 709//1269 704//1269
f 709//1270 710//1270 704//1270
f 704//1271 710//1271 705//1271
f 710//1272 711//1272 705//1272
f 705//1273 711//1273 706//1273
f 711//1274 712//1274 706//1274
f 706//1275 712//1275 707//1275
f 712//1276 713//1276 707//1276
f 707//1277 713//1277 101//1277
f 713//1278 100//1278 101//1278
f 92//1279 93//1279 708//1279
f 93//1280 94//1280 708//1280
f 708//1281 94//1281 709//1281
f 94//1282 95//1282 709//1282
f 709//1283 95//1283 710//1283
f 95//1284 96//1284 710//1284
f 710//1285 96//1285 711//1285
f 96//1286 97//1286 711//1286
f 711//1287 97//1287 712//1287
f 97//1288 98//1288 712//1288
f 712//1289 98//1289 713//1289
f 98//1290 99//1290 713//1290
f 713//1291 99//1291 100//1291
f 99//1292 75//1292 100//1292
